Place,Name,Sex,Age,Country,Equipment,Division,BodyweightKg,WeightClassKg,Squat1Kg,Squat2Kg,Squat3Kg,Squat4Kg,Best3SquatKg,Bench1Kg,Bench2Kg,Bench3Kg,Bench4Kg,Best3BenchKg,Deadlift1Kg,Deadlift2Kg,Deadlift3Kg,Deadlift4Kg,Best3DeadliftKg,TotalKg,Event,BirthDate
1,Louly Cavalier,F,20,France,Raw,F_JR_WPC,73.05,75,155,165,170,,170,75,85,-90,,85,160,175,185,,185,440,SBD,
2,Dannan Jackson,F,,Ireland,Raw,F_JR_WPC,73.45,75,-107.5,120,127.5,,127.5,57.5,65,-70,,65,165,-182.5,-182.5,,165,357.5,SBD,2003-09-28
3,Hetal Singh,F,20,Australia,Raw,F_JR_WPC,73.5,75,87.5,92.5,-97.5,,92.5,35,40,42.5,,42.5,100,107.5,110,,110,245,SBD,
1,Kathryn Greaves,F,40,England,Raw,F_MR_1_WPC,47.5,48,75,-80,80,82.5,80,42.5,45,-47.5,,45,100,110,117.5,,117.5,242.5,SBD,
1,Jatta Ihanmäki,F,40,Finland,Raw,F_MR_1_WPC,50.45,52,70,-80,80,,80,40,45,-50,,45,100,115,120,,120,245,SBD,
1,Emma Goodman,F,43,England,Raw,F_MR_1_WPC,54.3,56,90,-97.5,-97.5,,90,52.5,-57.5,-57.5,,52.5,112.5,117.5,122.5,,122.5,265,SBD,
1,Natalie Parker #1,F,40,England,Raw,F_MR_1_WPC,73.05,75,102.5,107.5,112.5,,112.5,55,60,62.5,,62.5,140,145,-150,,145,320,SBD,
2,Candice Westaway,F,41,England,Raw,F_MR_1_WPC,72.55,75,95,102.5,-110,,102.5,62.5,70,-75,,70,120,130,140,,140,312.5,SBD,
3,Gemma Jones,F,40,England,Raw,F_MR_1_WPC,73.45,75,92.5,-95,95,,95,62.5,65,67.5,,67.5,125,137.5,145,,145,307.5,SBD,
1,Sarah Paez-Long,F,42,USA,Raw,F_MR_1_WPC,108.1,110,162.5,-177.5,-180,,162.5,80,85,87.5,-92.5,87.5,165,175,-180,,175,425,SBD,
1,Donna Spencer,F,45,Ireland,Raw,F_MR_2_WPC,98.4,100,105,115,122.5,,122.5,75,85,-92.5,,85,160,175,-180,,175,382.5,SBD,
2,Jennifer Geary,F,46,Ireland,Raw,F_MR_2_WPC,95.8,100,120,130,140,,140,62.5,67.5,-72.5,,67.5,120,130,-135,,130,337.5,SBD,
1,Geraldine Goligher,F,51,England,Raw,F_MR_3_WPC,66.3,67.5,120,130,-140.5,,130,95,100,-105.5,,100,160,170,175,,175,405,SBD,
1,Linda Rose-James,F,51,Australia,Raw,F_MR_3_WPC,86.5,90,120,-127.5,-127.5,,120,67.5,77.5,-85,,77.5,130,145,160,,160,357.5,SBD,
1,Julie Green #1,F,55,England,Raw,F_MR_4_WPC,106.4,110,-110,-110,110,,110,60,67.5,72.5,,72.5,120,135,150,,150,332.5,SBD,
1,Helen Harvey,F,62,Australia,Raw,F_MR_5_WPC,63.45,67.5,80,-85,-85,,80,35,40,42.5,-46,42.5,115,122.5,128,130,128,250.5,SBD,
1,Patricia Wetton,F,61,England,Raw,F_MR_5_WPC,80.8,82.5,90,97.5,103,,103,56,60,-62.5,,60,115,122.5,-130,,122.5,285.5,SBD,
NS,Yvette Fox,F,65,USA,Raw,F_MR_6_WPC,,,,,,,,,,,,,,,,,,,SBD,
1,Ines Sedrati,F,28,France,Raw,F_OR_WPC,55.3,56,77.5,82.5,-90,,82.5,37.5,40,-47.5,,40,120,-130,-132.5,,120,242.5,SBD,
2,Donika,F,24,India,Raw,F_OR_WPC,55.05,56,70,-75,-75,,70,45,-50,50,,50,90,100,-110,,100,220,SBD,
1,Alexandra Da Silva Vasconcelos,F,29,France,Raw,F_OR_WPC,59.75,60,112.5,-115,-115,,112.5,52.5,57.5,-60,,57.5,130,140,-147.5,,140,310,SBD,
2,Julie Raymond,F,31,France,Raw,F_OR_WPC,59.35,60,87.5,95,-102.5,,95,50,57.5,60,,60,125,137.5,145,,145,300,SBD,
3,Sarah Ellis #2,F,28,England,Raw,F_OR_WPC,56.5,60,85,95,102.5,,102.5,42.5,47.5,50,,50,112.5,122.5,132.5,,132.5,285,SBD,
1,Tiffany Ko,F,39,England,Raw,F_OR_WPC,66.95,67.5,140,145,-150,,145,77.5,-82.5,82.5,,82.5,-160,170,177.5,,177.5,405,SBD,
2,Mathilde Frankinet,F,27,France,Raw,F_OR_WPC,64,67.5,110,115,120,,120,55,60,-65,,60,150,160,-170,,160,340,SBD,
1,Michaela Owen-Clark,F,36,England,Raw,F_OR_WPC,71.8,75,145,150,-155,,150,82.5,87.5,-90,,87.5,-155,155,160,,160,397.5,SBD,
2,Rebecca Tuft,F,32,USA,Raw,F_OR_WPC,72.3,75,125,130,-137.5,,130,75,-85,-85,,75,160,-177.5,-177.5,,160,365,SBD,
3,Betty Bare,F,30,France,Raw,F_OR_WPC,71.8,75,120,-130,-130,,120,65,70,-75,,70,140,150,-160,,150,340,SBD,
1,Claire Scattergood,F,32,England,Raw,F_OR_WPC,81.05,82.5,105,110,117.5,,117.5,57.5,62.5,-67.5,,62.5,150,160,167.5,,167.5,347.5,SBD,
2,Emeline Pétré,F,24,France,Raw,F_OR_WPC,77,82.5,90,-105,-105,,90,55,62.5,-70,,62.5,90,105,-115,,105,257.5,SBD,
1,Kerry Jones,F,36,England,Raw,F_OR_WPC,89.9,90,100,110,120,,120,60,-65,,,60,112.5,125,135,,135,315,SBD,
1,Amber Phoenix,F,35,Canada,Raw,F_OR_WPC,98.15,100,127.5,-140,142.5,147.5,142.5,92.5,102.5,107.5,-110,107.5,140,150,-162.5,,150,400,SBD,
2,Andrea Campbell,F,37,England,Raw,F_OR_WPC,100,100,-122.5,127.5,135,,135,67.5,72.5,75,,75,152.5,162.5,-170,,162.5,372.5,SBD,
1,Sarah Paez-Long,F,42,USA,Raw,F_OR_WPC,108.1,110,162.5,-177.5,-180,,162.5,80,85,87.5,-92.5,87.5,165,175,-180,,175,425,SBD,
1,Bailey Stevens,F,13,Australia,Raw,F_TR_1_WPC,46.85,48,-67.5,67.5,-70.5,,67.5,25,27.5,30,,30,70,77.5,-80,,77.5,175,SBD,
1,Sophie Mac Cobb,F,14,Ireland,Raw,F_TR_1_WPC,85.85,90,130,140,150,160,150,60,70,80,,80,110,120,130,140,130,360,SBD,
2,Shristi Singh,F,15,Australia,Raw,F_TR_1_WPC,88.45,90,85,92.5,97.5,-100,97.5,40,45.5,47.5,-50,47.5,100,-110,110,112.5,110,255,SBD,
1,Roselyn Martin,F,15,USA,Raw,F_TR_1_WPC,96.55,100,115,127.5,-137.5,,127.5,57.5,60,62.5,,62.5,115,125,137.5,142.5,137.5,327.5,SBD,
1,Gabrielle Stuffins,F,16,England,Raw,F_TR_2_WPC,80.3,82.5,-112.5,-117.5,117.5,,117.5,72.5,80,-85,,80,-160,160,-175,,160,357.5,SBD,
1,Julie Green #1,F,55,England,Single-ply,F_MES_4_WPC,106.4,110,,,,,,85,90,-95,,90,,,,,,90,B,
1,Sabine Allner,F,39,Germany,Single-ply,F_OES_WPC,129.5,110+,,,,,,150,,,,150,,,,,,150,B,
1,Rehana Maniar,F,49,Ireland,Multi-ply,F_MEM_2_WPC,67,67.5,,,,,,100,112.5,-130,,112.5,,,,,,112.5,B,
1,Teri Read,F,51,USA,Multi-ply,F_MEM_3_WPC,99.75,100,,,,,,132.5,-140,-140,,132.5,,,,,,132.5,B,
1,Teri Read,F,51,USA,Multi-ply,F_OEM_WPC,99.75,100,,,,,,132.5,-140,-140,,132.5,,,,,,132.5,B,
1,Ben Astin,M,21,England,Raw,M_JR_WPC,58,60,-145,145,163,,163,115,122.5,125,-130.5,125,145,160,-170,,160,448,SBD,
1,Charlie Dimmock,M,21,England,Raw,M_JR_WPC,67.25,67.5,200,-205,205,,205,125,130,135,,135,250,260,-267.5,,260,600,SBD,
DQ,Przemyszaw Stec,M,22,Poland,Raw,M_JR_WPC,66.75,67.5,170,180,-185,,180,125,-130,130,,130,-300,-300,-300,,,,SBD,
1,Ryan Aissaoui,M,23,France,Raw,M_JR_WPC,73.6,75,160,170,-175,,170,100,107.5,-110,,107.5,180,195,202.5,,202.5,480,SBD,
1,Tim Gilbraith,M,,England,Raw,M_JR_WPC,89.3,90,172.5,182.5,192.5,,192.5,110,117.5,122.5,,122.5,197.5,210,-227.5,,210,525,SBD,
1,Jere Uusikartano,M,22,Finland,Raw,M_JR_WPC,106.9,110,190,-202.5,-202.5,,190,125,-130,-135,,125,220,240,250,,250,565,SBD,
NS,Mafal Fall,M,35,France,Raw,M_OR_WPC,,,,,,,,,,,,,,,,,,,SBD,
NS,Paul Brown-Hampson,M,26,England,Raw,M_OR_WPC,,,,,,,,,,,,,,,,,,,SBD,
1,Jeffrey Lovelock,M,36,Australia,Raw,M_OR_WPC,67.45,67.5,155,165,-167.5,,165,95,100,102.5,,102.5,185,200,-205,,200,467.5,SBD,
DQ,Przemyszaw Stec,M,22,Poland,Raw,M_OR_WPC,66.75,67.5,170,180,-185,,180,125,-130,130,,130,-300,-300,-300,,,,SBD,
1,Anthony Nadal,M,32,France,Raw,M_OR_WPC,74.45,75,190,200,210,,210,137.5,145,150,,150,225,242.5,252.5,,252.5,612.5,SBD,
2,Lukas Solak,M,27,England,Raw,M_OR_WPC,74.1,75,195,205,-210,,205,125,130,135,,135,220,235,240,,240,580,SBD,
3,Surjeet Singh,M,33,India,Raw,M_OR_WPC,74.9,75,205,212.5,220,,220,137.5,142.5,145,,145,205,215,-222.5,,215,580,SBD,
1,Dario Sparacino,M,30,Italy,Raw,M_OR_WPC,81.45,82.5,-220,-220,220,,220,135,-140,140,,140,250,-260,-260,,250,610,SBD,
1,Mahmoud Faragalla,M,44,Egypt,Raw,M_OR_WPC,89.9,90,240,250,260,,260,190,200,207.5,,207.5,260,280,287.5,,287.5,755,SBD,
2,Jake Lonsdale,M,29,England,Raw,M_OR_WPC,87.75,90,250,-257.5,257.5,,257.5,140,145,-147.5,,145,260,267.5,270,,270,672.5,SBD,
3,Rémi Tavernier,M,27,France,Raw,M_OR_WPC,88.4,90,195,210,222.5,,222.5,137.5,145,150,,150,255,267.5,277.5,,277.5,650,SBD,
4,Thomas Lecomte,M,25,France,Raw,M_OR_WPC,89.9,90,-200,215,230,,230,125,140,-150,,140,250,265,275,,275,645,SBD,
5,Emanuel Affabile,M,27,Italy,Raw,M_OR_WPC,87.05,90,210,225,230,,230,135,-142.5,142.5,,142.5,250,-265,-275,,250,622.5,SBD,
6,Robert Harniman,M,39,Australia,Raw,M_OR_WPC,88.1,90,200,-220,,,200,100,160,170,,170,60,,,,60,430,SBD,
1,Simon Ducotterd,M,34,France,Raw,M_OR_WPC,99.95,100,-295,310,-320,,310,175,-182.5,-190,,175,365,-377.5,-377.5,,365,850,SBD,
2,Naël Bellay,M,41,France,Raw,M_OR_WPC,98.8,100,305,-315,-315,,305,160,-170,-170,,160,300,315,-325,,315,780,SBD,
3,Matthew Jackson #1,M,31,England,Raw,M_OR_WPC,90.8,100,240,257.5,265,,265,172.5,180,182.5,,182.5,260,277.5,295,,295,742.5,SBD,
4,Mitch Ravenscroft,M,34,England,Raw,M_OR_WPC,96.5,100,240,260,275,,275,170,187.5,195,,195,-240,255,272.5,,272.5,742.5,SBD,
5,Ali Hasanzade,M,32,England,Raw,M_OR_WPC,92.55,100,-215,215,230,,230,145,157.5,162.5,,162.5,245,275,-292.5,,275,667.5,SBD,
6,Josh Pywell,M,32,Australia,Raw,M_OR_WPC,99.7,100,225,237.5,-247.5,,237.5,125,135,-145,,135,295,-315,-315,,295,667.5,SBD,
1,Amir Mohamed Sayed Abdou,M,24,Egypt,Raw,M_OR_WPC,109.2,110,285,295,310,,310,190,205,-207.5,,205,270,300,,,300,815,SBD,
2,Will Smith #6,M,29,England,Raw,M_OR_WPC,109.05,110,260,-270,,,260,170,-180,-180,,170,280,-305,-305,,280,710,SBD,
3,Caoilin Traynor,M,24,Ireland,Raw,M_OR_WPC,108.35,110,235,250,,,250,160,165,167.5,,167.5,260,280,-295,,280,697.5,SBD,
4,Jere Uusikartano,M,22,Finland,Raw,M_OR_WPC,106.9,110,190,,,,190,125,-130,-135,,125,220,240,250,,250,565,SBD,
DQ,Richard Sayce,M,38,England,Raw,M_OR_WPC,109.1,110,250,-260,260,,260,155,165,-175,,165,,,,,,,SBD,
1,Fabian Dick,M,31,Germany,Raw,M_OR_WPC,122.8,125,-280,290,-300,,290,205,-212.5,-212.5,,205,290,300,-310,,300,795,SBD,
2,Douglas Callard,M,38,England,Raw,M_OR_WPC,122.65,125,260,270,-280,,270,185,195,205,,205,280,300,310,,310,785,SBD,
3,Stephen Fraher,M,37,England,Raw,M_OR_WPC,120.5,125,290,305,307.5,,307.5,155,160,165,,165,275,282.5,287.5,,287.5,760,SBD,
4,Marvin Joly,M,25,France,Raw,M_OR_WPC,122.05,125,240,250,260,,260,165,172.5,-180,,172.5,290,-315,-315,,290,722.5,SBD,
5,Paul Parker #1,M,36,England,Raw,M_OR_WPC,120.9,125,240,250,-260,,250,-160,172.5,-175,,172.5,275,-300,-300,,275,697.5,SBD,
6,Shane Clavin,M,38,Ireland,Raw,M_OR_WPC,114.05,125,195,205,215,,215,105,110,-115,,110,215,222.5,-230,,222.5,547.5,SBD,
1,William Morgan #2,M,15,England,Raw,M_TR_1_WPC,68.55,75,100,110,120,,120,62.5,67.5,72.5,,72.5,112.5,125,135,,135,327.5,SBD,
1,Evan Cassidy,M,16,Ireland,Raw,M_TR_2_WPC,64.95,67.5,90,100,-105,,100,55,62.5,65,,65,115,122.5,125,,125,290,SBD,
1,Giovanni Enriquez,M,16,USA,Raw,M_TR_2_WPC,73.35,75,130,-140,-140,,130,92.5,97.5,-102.5,,97.5,182.5,190,-192.5,,190,417.5,SBD,
1,William Strout,M,16,USA,Raw,M_TR_2_WPC,82.7,90,177.5,-187.5,192.5,,192.5,115,120,122.5,,122.5,207.5,-210,-210,,207.5,522.5,SBD,
1,Edoardo Teja,M,19,Italy,Raw,M_TR_3_WPC,82.3,82.5,215,225,-240.5,,225,100,107.5,112.5,,112.5,230,242.5,-254,,242.5,580,SBD,
1,Axel Trouillet,M,18,France,Raw,M_TR_3_WPC,95.65,100,210,220,230,,230,160,165,167.5,,167.5,210,230,245.5,,245.5,643,SBD,
1,Rehana Maniar,F,49,Ireland,Single-ply,F_MES_2_WPC,67,67.5,,,,,,,,,,,150,167.5,-181,,167.5,167.5,D,
NS,Katie Lane,F,35,England,Single-ply,F_OES_WPC,,,,,,,,,,,,,,,,,,,D,
1,Kelly-Ann King,F,37,Australia,Single-ply,F_OES_WPC,77.1,82.5,,,,,,,,,,,160,175,185,-190,185,185,D,
1,Teri Read,F,51,USA,Multi-ply,F_MEM_3_WPC,99.75,100,,,,,,,,,,,175,182.5,187.5,190,187.5,187.5,D,
1,Eija Pesonen,F,31,Finland,Multi-ply,F_OEM_WPC,59.4,60,,,,,,,,,,,175,-185,185,-195.5,185,185,D,
1,Teri Read,F,51,USA,Multi-ply,F_OEM_WPC,99.75,100,,,,,,,,,,,175,182.5,187.5,190,187.5,187.5,D,
1,Jani Vaskelainen,M,48,Finland,Single-ply,M_MES_2_WPC,81.1,82.5,,,,,,150,,,,150,,,,,,150,B,
1,Jason Pearson #2,M,43,England,Single-ply,M_MES_1_WPC,66.9,67.5,,,,,,107.5,115,-117.5,,115,,,,,,115,B,
DQ,Manlio Scorza,M,42,Italy,Single-ply,M_MES_1_WPC,98.4,100,,,,,,-215,-215,-215,,,,,,,,,B,
DQ,Fabrice Lappicirella,M,47,France,Single-ply,M_MES_2_WPC,80.6,82.5,,,,,,-165,-165,-165,,,,,,,,,B,
1,Norman Herrmann,M,49,Germany,Single-ply,M_MES_2_WPC,87.35,90,,,,,,160,170,180,,180,,,,,,180,B,
2,Parampreet Singh,M,45,India,Single-ply,M_MES_2_WPC,85.95,90,,,,,,100,110,115,,115,,,,,,115,B,
1,Alessandro Scorsone,M,49,Italy,Single-ply,M_MES_2_WPC,138.3,140,,,,,,220,240,,,240,,,,,,240,B,
1,Oskars Zvarts,M,45,Ireland,Single-ply,M_MES_2_WPC,140.65,140+,,,,,,250,260,270,,270,,,,,,270,B,
1,Endaf Phillips,M,51,England,Single-ply,M_MES_3_WPC,90,90,,,,,,190,200,-205,,200,,,,,,200,B,
1,Paul Morgan,M,50,England,Single-ply,M_MES_3_WPC,109.5,110,,,,,,160,,,,160,,,,,,160,B,
1,John Pollard,M,53,England,Single-ply,M_MES_3_WPC,131.65,140,,,,,,-182.5,187.5,,,187.5,,,,,,187.5,B,
1,David Gibson #2,M,58,England,Single-ply,M_MES_4_WPC,81.95,82.5,,,,,,145,150,152.5,155,152.5,,,,,,152.5,B,
1,Mark Esch,M,55,South Africa,Single-ply,M_MES_4_WPC,121.65,125,,,,,,155,-172.5,-172.5,,155,,,,,,155,B,
1,Richard Evans,M,56,England,Single-ply,M_MES_4_WPC,138.4,140,,,,,,-157.5,157.5,167.5,,167.5,,,,,,167.5,B,
1,Phil Beniston,M,60,England,Single-ply,M_MES_5_WPC,89.25,90,,,,,,140,185.5,-190,,185.5,,,,,,185.5,B,
1,John Carney #1,M,65,England,Single-ply,M_MES_6_WPC,89.25,90,,,,,,130,140,-153,,140,,,,,,140,B,
1,Joannis Sulime,M,72,France,Single-ply,M_MES_7_WPC,72.5,75,,,,,,115,120,,,120,,,,,,120,B,
1,Jason Pearson #2,M,43,England,Single-ply,M_OES_WPC,66.9,67.5,,,,,,107.5,115,-117.5,,115,,,,,,115,B,
1,Surjeet Singh,M,33,India,Single-ply,M_OES_WPC,73.65,75,,,,,,167.5,175,185,,185,,,,,,185,B,
1,Mohit Dugg,M,32,India,Single-ply,M_OES_WPC,81.35,82.5,,,,,,150,155,-160,,155,,,,,,155,B,
2,David Gibson #2,M,58,England,Single-ply,M_OES_WPC,81.95,82.5,,,,,,145,150,152.5,155,152.5,,,,,,152.5,B,
1,Chris Donoghue,M,37,England,Single-ply,M_OES_WPC,99.85,100,,,,,,220,-240,240,,240,,,,,,240,B,
2,Agostino Vaccaro,M,32,Italy,Single-ply,M_OES_WPC,99.95,100,,,,,,160,-175,,,160,,,,,,160,B,
1,James Black #1,M,32,Ireland,Single-ply,M_OES_WPC,104.15,110,,,,,,200,-215,-215,,200,,,,,,200,B,
2,Robert Beattie,M,34,England,Single-ply,M_OES_WPC,107.9,110,,,,,,195,-210,-210,,195,,,,,,195,B,
3,Paul Morgan,M,50,England,Single-ply,M_OES_WPC,109.5,110,,,,,,160,,,,160,,,,,,160,B,
1,Cory Carter,M,33,USA,Single-ply,M_OES_WPC,136.6,140,,,,,,-135,-140,140,,140,,,,,,140,B,
1,Daniel Fonseca,M,42,Portugal,Multi-ply,M_MEM_1_WPC,89.1,90,,,,,,230,-250,-250,,230,,,,,,230,B,
1,Sébastien Boizou,M,49,France,Multi-ply,M_MEM_2_WPC,88.35,90,,,,,,190,,,,190,,,,,,190,B,
1,Steeve Barros Gameiro,M,45,France,Multi-ply,M_MEM_2_WPC,97.95,100,,,,,,-315,-315,315,-326,315,,,,,,315,B,
1,Eric Platel,M,52,France,Multi-ply,M_MEM_3_WPC,109.85,110,,,,,,250,-270,-270,,250,,,,,,250,B,
1,Stéphane Gurini,M,58,France,Multi-ply,M_MEM_4_WPC,93.85,100,,,,,,160,180,-190,,180,,,,,,180,B,
1,Kevin Maher,M,62,England,Multi-ply,M_MEM_5_WPC,102.85,110,,,,,,180,192.5,-205,,192.5,,,,,,192.5,B,
DQ,Didier Theux,M,65,France,Multi-ply,M_MEM_6_WPC,88.25,90,,,,,,-200,-200,-200,,,,,,,,,B,
1,Tahvo Jauhojärvi,M,61,Finland,Single-ply,M_MES_5_WPC,74.35,75,,,,,,160,165.5,170,,170,,,,,,170,B,
DQ,Didier Theux,M,65,France,Multi-ply,M_OEM_WPC,88.25,90,,,,,,-200,-200,-200,,,,,,,,,B,
1,Steeve Barros Gameiro,M,45,France,Multi-ply,M_OEM_WPC,97.95,100,,,,,,-315,-315,315,-326,315,,,,,,315,B,
1,Dominik Hoppe,M,41,Germany,Multi-ply,M_OEM_WPC,111.75,125,,,,,,160,,,,160,,,,,,160,B,
1,Jason Pearson #2,M,43,England,Single-ply,M_MES_1_WPC,66.9,67.5,,,,,,,,,,,172.5,180,-190,,180,180,D,
1,Maël Le Paven,M,42,France,Single-ply,M_MES_1_WPC,80.4,82.5,,,,,,,,,,,245,260,273,-278,273,273,D,
1,Giancarlo Natale,M,41,Italy,Single-ply,M_MES_1_WPC,87.95,90,,,,,,,,,,,245,265,-283,,265,265,D,
1,Norman Herrmann,M,49,Germany,Single-ply,M_MES_2_WPC,87.35,90,,,,,,,,,,,240,250,262.5,,262.5,262.5,D,
1,Richard Green #2,M,57,England,Single-ply,M_MES_4_WPC,115.45,125,,,,,,,,,,,230,245,-260,,245,245,D,
1,Jason Pearson #2,M,43,England,Single-ply,M_OES_WPC,66.9,67.5,,,,,,,,,,,172.5,180,-190,,180,180,D,
1,Maël Le Paven,M,42,France,Single-ply,M_OES_WPC,80.4,82.5,,,,,,,,,,,245,260,273,-278,273,273,D,
1,Agostino Vaccaro,M,32,Italy,Single-ply,M_OES_WPC,99.95,100,,,,,,,,,,,200,,,,200,200,D,
1,Harry Glass,M,27,England,Single-ply,M_OES_WPC,107.1,110,,,,,,,,,,,275,330,,,330,330,D,
1,John Strange,M,38,England,Single-ply,M_OES_WPC,135.15,140,,,,,,,,,,,260,280,-300,,280,280,D,
1,Miika Pesonen,M,14,Finland,Single-ply,M_TES_1_WPC,48.85,52,,,,,,,,,,,110,120,130,,130,130,D,
DQ,Sonny Hall,M,23,England,Multi-ply,M_JEM_WPC,88,90,,,,,,,,,,,-265,-275,-275,,,,D,
DQ,Jani Vaskelainen,M,48,Finland,Multi-ply,M_MEM_2_WPC,81.1,82.5,,,,,,,,,,,-200,-200,,,,,D,
1,Didier Theux,M,65,France,Multi-ply,M_MEM_6_WPC,88.25,90,,,,,,,,,,,230,-260,-260,,230,230,D,
1,Didier Theux,M,65,France,Multi-ply,M_OEM_WPC,88.25,90,,,,,,,,,,,230,-260,-260,,230,230,D,
1,Jukka Matikainen,M,29,Finland,Multi-ply,M_OEM_WPC,99.45,100,,,,,,,,,,,315,-327.5,-340,,315,315,D,
1,Marcus Heuer,M,31,Germany,Multi-ply,M_OEM_WPC,101.8,110,,,,,,,,,,,275,-290,-290,,275,275,D,
1,Rehana Maniar,F,49,Ireland,Multi-ply,F_MEM_2_WPC,69.95,75,120,140,160,,160,100,115,125,,125,150,160,-170,,160,445,SBD,
1,Elaine Rollo,F,41,England,Single-ply,F_MES_1_WPC,86.2,90,200,212.5,-220,,212.5,125,135,140,,140,185,195,-202.5,,195,547.5,SBD,
1,Megan Haverty,F,29,Ireland,Single-ply,F_OES_WPC,47.95,48,95,105,112.5,,112.5,-65,65,70,,70,-105,105,-115,,105,287.5,SBD,
1,Vilhelmiina Sillanpää,F,28,Finland,Single-ply,F_OES_WPC,66.15,67.5,175,195,-210.5,,195,80,-92.5,92.5,,92.5,-150,160,177.5,-185.5,177.5,465,SBD,
NS,Aisling O'neill,F,39,Ireland,Multi-ply,F_OEM_WPC,,,,,,,,,,,,,,,,,,,SBD,
DQ,Jodie Davies,F,27,England,Multi-ply,F_OEM_WPC,51.45,52,160,-180,-180,,160,-120,-120,-120,,,,,,,,,SBD,
1,Daniel Shearly,M,41,England,Single-ply,M_MES_1_WPC,89.1,90,240,260,270,,270,200,215,220,,220,250,266,270,,270,760,SBD,
1,Callum Rollo,M,41,England,Single-ply,M_MES_1_WPC,105.15,110,-305,315,-325,,315,225,-240,-240,,225,240,260,-272.5,,260,800,SBD,
1,Michael Gallagher #2,M,48,Ireland,Single-ply,M_MES_2_WPC,59.75,60,175,-190,190,,190,100,-110,-110,,100,150,160,170,,170,460,SBD,
1,Henry O Grady,M,51,Ireland,Single-ply,M_MES_3_WPC,88.75,90,260,-275,-275,,260,100,146,150,,150,230,256,-260,,256,666,SBD,
1,Shane Brodie,M,50,Ireland,Single-ply,M_MES_3_WPC,98.5,100,280,-300,300,,300,147.5,-155,157.5,,157.5,210,230,-251,,230,687.5,SBD,
1,Gary Lewis,M,51,South Africa,Single-ply,M_MES_3_WPC,106.4,110,200,240,-280,,240,100,160,-180,,160,220,250,-278,,250,650,SBD,
1,Tony Chilcott,M,56,England,Single-ply,M_MES_4_WPC,81.25,82.5,260,-285,-285,,260,170,180,-182.5,,180,200,220,-235,,220,660,SBD,
1,Zane Ison,M,55,South Africa,Single-ply,M_MES_4_WPC,131,140,280,305,325,,325,165,172.5,-180,,172.5,280,-305,305,,305,802.5,SBD,
1,Phil Beniston,M,60,England,Single-ply,M_MES_5_WPC,90,90,170,185,200,,200,170,180,190,,190,220,240,250,,250,640,SBD,
1,Daniel Shearly,M,41,England,Single-ply,M_OES_WPC,89.1,90,240,260,270,,270,200,215,220,,220,250,266,270,,270,760,SBD,
DQ,PJ Kehoe,M,29,Ireland,Single-ply,M_OES_WPC,89.75,90,-300,315,-325,,315,-190,-190,-202.5,,,,,,,,,SBD,
1,John Walsh #1,M,28,England,Single-ply,M_OES_WPC,97,100,300,320,335,,335,200,215,225,,225,275,295,312.5,,312.5,872.5,SBD,
2,Agostino Vaccaro,M,32,Italy,Single-ply,M_OES_WPC,99.8,100,180,,,,180,70,,,,70,180,,,,180,430,SBD,
DQ,Johan Frisk,M,32,Finland,Single-ply,M_OES_WPC,99.2,100,310,-335,-335,,310,210,230,-245,,230,-285,-305,-305,,,,SBD,
2,Julian Collinson,M,43,England,Single-ply,M_OES_WPC,107,110,-270,-270,270,,270,-210,210,-215,,210,250,-265,265,,265,745,SBD,
3,Scott Chafer,M,49,England,Single-ply,M_OES_WPC,107.4,110,280,-300,300,,300,175,-185,-185,,175,250,-267.5,,,250,725,SBD,
1,Callum Rollo,M,41,England,Single-ply,M_OES_WPC,105.15,110,-305,315,-325,,315,225,-240,-240,,225,240,260,-272.5,,260,800,SBD,
1,Eliot Page,M,31,England,Single-ply,M_OES_WPC,119.9,125,380,410,436,,436,247.5,255,260,,260,305,325,-337.5,,325,1021,SBD,
2,Mario Raychev,M,26,Bulgaria,Single-ply,M_OES_WPC,111.95,125,-310,310,325,,325,205,215,220,,220,275,290,300,,300,845,SBD,
1,Harrison Taylor,M,17,England,Single-ply,M_TES_2_WPC,71.6,75,210,220,227.5,,227.5,117.5,125,-130,,125,205,-217.5,220,238,220,572.5,SBD,
1,Oisin Smith,M,18,Ireland,Single-ply,M_TES_3_WPC,113.7,125,245,-260,260,,260,145,152.5,-155,,152.5,212.5,230,-235,,230,642.5,SBD,
1,Brian Leahy,M,43,Ireland,Multi-ply,M_MEM_1_WPC,74.35,75,170,-190,200,,200,75,85,90,,90,200,215,230,,230,520,SBD,
1,Daljit Singh,M,44,India,Multi-ply,M_MEM_1_WPC,86.95,90,270,290,300,,300,140,147.5,150,,150,250,260,-270,,260,710,SBD,
DQ,Pekka Räihä,M,41,Finland,Multi-ply,M_MEM_1_WPC,106,110,345,365,-380,,365,-245,-245,-250,,,,,,,,,SBD,
1,Sébastien Boizou,M,49,France,Multi-ply,M_MEM_2_WPC,89.15,90,250,270,285,,285,190,205,-220,,205,-225,225,240,,240,730,SBD,
1,Sharam Forutan,M,55,Germany,Multi-ply,M_MEM_4_WPC,74.75,75,220,242.5,-255,,242.5,150,-160,-160,,150,200,210,-222.5,,210,602.5,SBD,
1,Didier Theux,M,65,France,Multi-ply,M_MEM_6_WPC,89.1,90,225,235,245,,245,190,-200,-200,,190,230,260,-270,,260,695,SBD,
1,Dean Gartland,M,36,Ireland,Multi-ply,M_OEM_WPC,74.9,75,-260,260,-285,,260,182.5,-192.5,-200,,182.5,212.5,220,230,,230,672.5,SBD,
1,Tom Gee #1,M,40,England,Multi-ply,M_OEM_WPC,89.5,90,-295,295,-310,,295,180,187.5,192.5,,192.5,240,255,275,,275,762.5,SBD,
2,Sébastien Boizou,M,49,France,Multi-ply,M_OEM_WPC,89.15,90,250,270,285,,285,190,205,-220,,205,-225,225,240,,240,730,SBD,
3,Scott Kuderick,M,49,USA,Multi-ply,M_OEM_WPC,89.95,90,-307.5,-307.5,307.5,,307.5,170,175,,,175,232.5,235,-260,,235,717.5,SBD,
DQ,Pekka Räihä,M,41,Finland,Multi-ply,M_OEM_WPC,106,110,345,365,-380,,365,-245,-245,-250,,,,,,,,,SBD,
1,Edward Holt,M,29,England,Multi-ply,M_OEM_WPC,116.65,125,310,-325,-325,,310,220,232.5,-245,,232.5,-240,240,275,,275,817.5,SBD,
2,Dominik Hoppe,M,41,Germany,Multi-ply,M_OEM_WPC,113.3,125,220,-240,,,220,160,170,-175,,170,230,,,,230,620,SBD,
1,Pat McNamara,M,43,Ireland,Raw,M_MR_1_WPC,75.8,82.5,150,162.5,170,,170,122.5,130,135,,135,195,207.5,215,,215,520,SBD,
1,Gareth James,M,44,England,Raw,M_MR_1_WPC,91.55,100,145,155,165,,165,97.5,-107.5,,,97.5,195,210,220,,220,482.5,SBD,
1,Ville Suominen,M,41,Finland,Raw,M_MR_1_WPC,120.55,125,285,305,,,305,175,185,,,185,310,-340,-340,,310,800,SBD,
1,Antti Tietäväinen,M,45,Finland,Raw,M_MR_2_WPC,88.6,90,180,190,195,,195,150,155,-160,,155,210,-230,-230,,210,560,SBD,
2,Parampreet Singh,M,45,India,Raw,M_MR_2_WPC,87.05,90,140,150,155,,155,90,-100,,,90,175,195,197.5,,197.5,442.5,SBD,
1,Steven Middleton-Lowes,M,52,England,Raw,M_MR_3_WPC,106.05,110,232.5,250,265,,265,140,152.5,157.5,,157.5,272.5,-292.5,,,272.5,695,SBD,
1,Jason Swalwell,M,52,England,Raw,M_MR_3_WPC,122.05,125,160,175,-190,,175,170,175,180,,180,280,-292.5,,,280,635,SBD,
2,Doug Rolle,M,53,USA,Raw,M_MR_3_WPC,118.95,125,152.5,175,187.5,,187.5,107.5,115,122.5,,122.5,182.5,205,227.5,,227.5,537.5,SBD,
1,Michael Schrott,M,50,Germany,Raw,M_MR_3_WPC,134.25,140,260,280,-300,,280,170,175,-180,,175,250,270,285,,285,740,SBD,
1,Jeremy Morley,M,56,England,Raw,M_MR_4_WPC,86.9,90,130,-137.5,-137.5,,130,92.5,95,97.5,,97.5,170,175,180,,180,407.5,SBD,
1,Chad Hall,M,57,USA,Raw,M_MR_4_WPC,133.5,140,200,230,242.5,,242.5,152.5,157.5,-162.5,,157.5,185,207.5,-227.5,,207.5,607.5,SBD,
1,John Harnett,M,61,England,Raw,M_MR_5_WPC,73.05,75,100,110,120,,120,60,70,80,,80,140,155,165,,165,365,SBD,
1,John Melcher,M,61,USA,Raw,M_MR_5_WPC,107.85,110,202.5,217.5,225,,225,145,157.5,-162.5,,157.5,202.5,220,230,,230,612.5,SBD,
1,Nigel Thomas #2,M,64,England,Raw,M_MR_5_WPC,121.8,125,150,-160,160,,160,115,122.5,127.5,,127.5,185,200,,,200,487.5,SBD,
1,Terry Dvorak,M,60,USA,Raw,M_MR_5_WPC,129.65,140,180,200,220,,220,147.5,160,-167.5,,160,182.5,202.5,222.5,,222.5,602.5,SBD,
1,Peter Oram,M,69,England,Raw,M_MR_6_WPC,88.45,90,140,150,160,,160,75,80,-85,,80,195,210,220,,220,460,SBD,
1,Kazimierz Michael Forys,M,78,Germany,Raw,M_MR_8_WPC,94.95,100,110,130,-150,,130,-110,110,120,,120,160,190,200,,200,450,SBD,
NS,Neil Hawkins,M,44,England,Wraps,M_MCR_1_WPC,,,,,,,,,,,,,,,,,,,SBD,
NS,Oļegs Šaruks,M,40,Ireland,Wraps,M_MCR_1_WPC,,,,,,,,,,,,,,,,,,,SBD,
NS,Raivis Hofs,M,40,England,Wraps,M_MCR_1_WPC,,,,,,,,,,,,,,,,,,,SBD,
NS,Ricky Moore,M,43,England,Wraps,M_MCR_1_WPC,,,,,,,,,,,,,,,,,,,SBD,
NS,Tom Warren #1,M,40,England,Wraps,M_MCR_1_WPC,,,,,,,,,,,,,,,,,,,SBD,
1,Michael Naidoo,M,44,South Africa,Wraps,M_MCR_1_WPC,80.55,82.5,160,180,190,,190,90,-95,-95,,90,175,190,-205,,190,470,SBD,
1,Jack Swift,M,42,England,Wraps,M_MCR_1_WPC,89.75,90,235,242.5,,,242.5,140,150,-152.5,,150,250,265,277.5,,277.5,670,SBD,
1,Alan Wilson #1,M,42,England,Wraps,M_MCR_1_WPC,99.15,100,280,295,302.5,,302.5,142.5,150,152.5,,152.5,260,285,-290,,285,740,SBD,
2,Stuart Ainsley #1,M,42,England,Wraps,M_MCR_1_WPC,97.8,100,220,-240,-240,,220,150,160,-162.5,,160,240,255,-262.5,,255,635,SBD,
1,Martin O Mahony,M,43,Ireland,Wraps,M_MCR_1_WPC,102.5,110,225,242.5,-252.5,,242.5,135,145,-155,,145,260,280,-300,,280,667.5,SBD,
2,Alex Brunskill,M,42,England,Wraps,M_MCR_1_WPC,108.45,110,180,205,220,,220,120,130,-137.5,,130,220,-245,245,,245,595,SBD,
1,Andrzej Roszkowski,M,42,England,Wraps,M_MCR_1_WPC,115.2,125,330,360,-370,,360,-220,-240,240,,240,295,325,,,325,925,SBD,
2,Darryl Burns,M,44,Canada,Wraps,M_MCR_1_WPC,117.85,125,250,272.5,287.5,,287.5,140,-150,-150,,140,265,285,-297.5,,285,712.5,SBD,
3,Jerome Scherrer,M,42,England,Wraps,M_MCR_1_WPC,122.45,125,252.5,265,-277.5,,265,165,175,180,,180,250,260,-265,,260,705,SBD,
1,Ben Roberts #6,M,43,England,Wraps,M_MCR_1_WPC,138.35,140,-272.5,280,-292.5,,280,147.5,155,160,,160,265,285,-292.5,,285,725,SBD,
2,Martyn O'Connor,M,40,England,Wraps,M_MCR_1_WPC,135.5,140,240,250,260,,260,120,130,,,130,265,280,295,,295,685,SBD,
1,Frank Rodriguez #1,M,40,England,Wraps,M_MCR_1_WPC,140.7,140+,320,-350,350,,350,200,210,-220,,210,320,340,360,,360,920,SBD,
NS,Delroy McQueen,M,48,England,Wraps,M_MCR_2_WPC,,,,,,,,,,,,,,,,,,,SBD,
1,Paul Smyth,M,45,Ireland,Wraps,M_MCR_2_WPC,80.25,82.5,170,180,-190,,180,80,100,105,,105,180,195,-205,,195,480,SBD,
1,Lee Smith #9,M,46,England,Wraps,M_MCR_2_WPC,89.4,90,180,202.5,212.5,,212.5,135,142.5,147.5,,147.5,195,217.5,230,,230,590,SBD,
1,Marc Michalon,M,45,France,Wraps,M_MCR_2_WPC,99,100,280,296,312.5,,312.5,150,165,175,,175,240,260,280,,280,767.5,SBD,
2,Marcin Kaleta,M,46,England,Wraps,M_MCR_2_WPC,99.45,100,255,262.5,-282.5,,262.5,152.5,162.5,-172.5,,162.5,-230,240,250,,250,675,SBD,
3,Jens Hantel,M,49,Germany,Wraps,M_MCR_2_WPC,95.75,100,-170,180,-190,,180,130,-140,-140,,130,210,230,240,,240,550,SBD,
1,Ryan Silverson,M,48,Canada,Wraps,M_MCR_2_WPC,108.5,110,250,265,277.5,,277.5,175,185,192.5,,192.5,230,245,250,,250,720,SBD,
2,Nilesh Singh,M,47,Australia,Wraps,M_MCR_2_WPC,107.55,110,-215,215,227.5,,227.5,100,110,115,,115,185,195,-207.5,,195,537.5,SBD,
1,David Chevron,M,45,France,Wraps,M_MCR_2_WPC,139.15,140,280,290,300,,300,180,190,-200,,190,350,365,376,,376,866,SBD,
2,Darren McCormac,M,46,England,Wraps,M_MCR_2_WPC,130.45,140,230,250,-265,,250,175,185,192.5,,192.5,280,310,330,,330,772.5,SBD,
1,James Kirwan,M,52,Ireland,Wraps,M_MCR_3_WPC,81.9,82.5,190,-205,,,190,130,-135,-135,,130,210,230,-250,,230,550,SBD,
2,Lee Hetherington,M,52,England,Wraps,M_MCR_3_WPC,80.9,82.5,150,160,-165,,160,85,92.5,-97.5,,92.5,190,200,205,,205,457.5,SBD,
1,Paul Johnson #1,M,54,England,Wraps,M_MCR_3_WPC,89.35,90,215,227.5,235,,235,105,115,-120,,115,210,222.5,-227.5,,222.5,572.5,SBD,
2,Tony Roscoe,M,52,England,Wraps,M_MCR_3_WPC,88.7,90,170,185,195,,195,105,110,112.5,,112.5,225,245,-262.5,,245,552.5,SBD,
1,Warren Brits,M,50,South Africa,Wraps,M_MCR_3_WPC,98.7,100,190,220,235,,235,-130,-135,135,,135,290,301,-315,,301,671,SBD,
2,Dave Rade,M,53,Switzerland,Wraps,M_MCR_3_WPC,95.65,100,-235,240,250,,250,145,150,-155,,150,250,270,-285,,270,670,SBD,
1,Nicholas Hill #1,M,50,USA,Wraps,M_MCR_3_WPC,107.25,110,180,192.5,207.5,,207.5,160,170,-177.5,,170,215,225,237.5,,237.5,615,SBD,
1,Richard Baker #2,M,54,England,Wraps,M_MCR_3_WPC,121.6,125,255,267.5,275,,275,160,170,177.5,,177.5,250,260,270,,270,722.5,SBD,
1,Michael Burden,M,58,England,Wraps,M_MCR_4_WPC,99.15,100,160,170,175,,175,100,105,-107.5,,105,175,182.5,-187.5,,182.5,462.5,SBD,
2,Peter Gunn,M,58,England,Wraps,M_MCR_4_WPC,97.4,100,145,157.5,165,,165,92.5,100,102.5,,102.5,165,180,-187.5,,180,447.5,SBD,
1,Frank Oliver Hamann,M,56,Germany,Wraps,M_MCR_4_WPC,105.5,110,180,195,210,,210,125,135,145,,145,225,245,250,,250,605,SBD,
1,Richard Horan,M,56,Ireland,Wraps,M_MCR_4_WPC,118.2,125,300,320,330,,330,165,170,175,,175,260,270,-275,,270,775,SBD,
NS,Kevin Smith #21,M,60,England,Wraps,M_MCR_5_WPC,,,,,,,,,,,,,,,,,,,SBD,
1,Yong-Soo Lee,M,61,South Korea,Wraps,M_MCR_5_WPC,81.05,82.5,205,220,-230,,220,125,135,-140,,135,200,210,218,,218,573,SBD,
1,JJ Dunne,M,61,Ireland,Wraps,M_MCR_5_WPC,83.35,90,200,222.5,230,,230,112.5,120,-127.5,,120,-230,230,250,,250,600,SBD,
2,Michael Hawkins #1,M,61,England,Wraps,M_MCR_5_WPC,89.8,90,185,-195,-195,,185,110,115,-117.5,,115,180,192.5,200,,200,500,SBD,
NS,Rob Barber,M,69,England,Wraps,M_MCR_6_WPC,,,,,,,,,,,,,,,,,,,SBD,
1,John Dolan #2,M,67,England,Wraps,M_MCR_6_WPC,96.65,100,145,147.5,150,,150,-95,95,100,,100,155,165,170,,170,420,SBD,
NS,Eric Kahn,M,72,USA,Wraps,M_MCR_7_WPC,,,,,,,,,,,,,,,,,,,SBD,
1,Jack Medlin,M,17,England,Wraps,M_TCR_2_WPC,65.45,67.5,137.5,142.5,147.5,,147.5,100,105,112.5,,112.5,160,172.5,180,,180,440,SBD,
2,Botond Pap-Hintz,M,17,Germany,Wraps,M_TCR_2_WPC,67.15,67.5,140,145,-150,,145,100,105,-110.5,,105,172.5,185,-192.5,,185,435,SBD,
1,Milan Albertse,M,17,South Africa,Wraps,M_TCR_2_WPC,81,82.5,175,200,207.5,,207.5,100,112.5,120,,120,190,205,212.5,,212.5,540,SBD,
1,Zeke McAuslin,M,17,Australia,Wraps,M_TCR_2_WPC,88.2,90,195,-205,-205,,195,112.5,122.5,-130,,122.5,240,250,-265,,250,567.5,SBD,
1,Josh Taylor #1,M,19,England,Wraps,M_TCR_3_WPC,50.15,52,90,102.5,105,,105,62.5,67.5,-72.5,,67.5,110,120,-127.5,,120,292.5,SBD,
1,Jack O'Connor,M,18,Ireland,Wraps,M_TCR_3_WPC,64.5,67.5,120,135,142.5,,142.5,60,70,-72.5,,70,170,185,197.5,,197.5,410,SBD,
2,Archie Hales,M,18,England,Wraps,M_TCR_3_WPC,65.9,67.5,-110,110,115,,115,70,-77.5,-77.5,,70,170,-177.5,-177.5,,170,355,SBD,
1,Hugues Cazelles,M,18,France,Wraps,M_TCR_3_WPC,73.35,75,165,180,-190,,180,112.5,122.5,-130,,122.5,220,235,-242.5,,235,537.5,SBD,
1,William Kingston,M,18,England,Wraps,M_TCR_3_WPC,81.75,82.5,210,220,232.5,,232.5,117.5,125,130,,130,235,250,-260,,250,612.5,SBD,
1,Ryan Moffat,M,18,USA,Wraps,M_TCR_3_WPC,87.8,90,265,-272.5,-272.5,,265,125,-130,-130,,125,260,-275,280,-285,280,670,SBD,
2,Joshua Bullard,M,19,England,Wraps,M_TCR_3_WPC,89.95,90,227.5,237.5,-245,,237.5,147.5,-152.5,152.5,,152.5,240,247.5,-262.5,,247.5,637.5,SBD,
1,Isaac Flint,M,19,England,Wraps,M_TCR_3_WPC,98.2,100,197.5,215,222.5,,222.5,122.5,127.5,132.5,,132.5,225,240,247.5,,247.5,602.5,SBD,
2,Owen Dowley,M,18,Australia,Wraps,M_TCR_3_WPC,95.45,100,210,-220,-220,,210,125,130,-135,,130,200,-210,-210,,200,540,SBD,
1,Barnaby Spear,M,19,England,Wraps,M_TCR_3_WPC,107.9,110,225,235,-242.5,,235,165,175,-180,,175,220,230,-235,,230,640,SBD,
1,Sol Kelly,M,19,England,Wraps,M_TCR_3_WPC,110.55,125,170,190,210,,210,115,127.5,-140,,127.5,230,255,-275,,255,592.5,SBD,
NS,Ruscito Luca,M,21,Italy,Wraps,M_JCR_WPC,,,,,,,,,,,,,,,,,,,SBD,
NS,Tzvetam Ignatov,M,21,England,Wraps,M_JCR_WPC,,,,,,,,,,,,,,,,,,,SBD,
1,Jean-Baptiste Koedemoesoe,M,20,,Wraps,M_JCR_WPC,67.15,67.5,175,185,195,,195,110,115,-130,,115,215,-230,-250,,215,525,SBD,
1,Alden Aldea,M,23,England,Wraps,M_JCR_WPC,74.1,75,197.5,207.5,212.5,,212.5,117.5,122.5,-130,,122.5,205,217.5,225,,225,560,SBD,
1,Joshua Genever,M,23,Australia,Wraps,M_JCR_WPC,80.2,82.5,255,265,275,,275,165,170,172.5,,172.5,255,267.5,-275,,267.5,715,SBD,
2,Franck Martinet,M,22,France,Wraps,M_JCR_WPC,82.25,82.5,235,245,-250,,245,115,122.5,-130,,122.5,245,255,262.5,,262.5,630,SBD,
1,James Farrell #1,M,22,Ireland,Wraps,M_JCR_WPC,87.7,90,190,-205,205,,205,105,-112.5,-112.5,,105,220,235,-250,,235,545,SBD,
1,Callum Hold,M,20,England,Wraps,M_JCR_WPC,99.85,100,232.5,250,260,,260,152.5,162.5,170,,170,-235,250,265,,265,695,SBD,
2,Simon Marku,M,21,Bulgaria,Wraps,M_JCR_WPC,95.95,100,240,252.5,262.5,,262.5,160,167.5,172.5,,172.5,240,255,-265,,255,690,SBD,
3,Jeremia Saloniemi,M,22,Finland,Wraps,M_JCR_WPC,98.5,100,205,-215,220,,220,127.5,-135,-135,,127.5,240,262.5,-270,,262.5,610,SBD,
4,Adam Murray #1,M,23,Ireland,Wraps,M_JCR_WPC,91.4,100,170,-185,-190,,170,100,107.5,110,,110,210,232.5,-250,,232.5,512.5,SBD,
5,Cameron Murray #1,M,,Ireland,Wraps,M_JCR_WPC,98.95,100,190,-200,-200,,190,85,90,-92.5,,90,185,200,210,,210,490,SBD,
DQ,Thomas Carpenter Rich,M,22,England,Wraps,M_JCR_WPC,99.05,100,265,-277.5,-277.5,,265,135,145,152.5,,152.5,-300,-305,-305,,,,SBD,
1,Aaron Mc Donnell,M,22,Ireland,Wraps,M_JCR_WPC,108.75,110,215,230,245,,245,155,165,170,,170,220,235,250,,250,665,SBD,
NS,Alexandre Lechene,M,24,France,Wraps,M_OCR_WPC,,,,,,,,,,,,,,,,,,,SBD,
NS,Giulio Leone,M,26,Italy,Wraps,M_OCR_WPC,,,,,,,,,,,,,,,,,,,SBD,
NS,Jonathan Bottin,M,35,France,Wraps,M_OCR_WPC,,,,,,,,,,,,,,,,,,,SBD,
NS,Joni Laiho,M,30,Finland,Wraps,M_OCR_WPC,,,,,,,,,,,,,,,,,,,SBD,
NS,Mohamed Mohamed,M,21,Egypt,Wraps,M_OCR_WPC,,,,,,,,,,,,,,,,,,,SBD,
NS,Will Bennetts,M,28,England,Wraps,M_OCR_WPC,,,,,,,,,,,,,,,,,,,SBD,
1,Florian Mabire,M,27,France,Wraps,M_OCR_WPC,66.8,67.5,-187.5,187.5,202.5,,202.5,137.5,145,-148.5,,145,240,-252.5,-252.5,,240,587.5,SBD,
1,Sami Vaskelainen,M,39,Finland,Wraps,M_OCR_WPC,74.5,75,235,245,-250,,245,130,135,137.5,,137.5,270,280,285,-302.5,285,667.5,SBD,
2,Aodhan Phillips-Lees,M,30,England,Wraps,M_OCR_WPC,74.95,75,232.5,250,-257.5,,250,140,150,155,,155,235,-250,-250,,235,640,SBD,
3,Tom Wright #3,M,35,England,Wraps,M_OCR_WPC,73.35,75,200,210,220,,220,120,130,140,,140,-235,265,-280,,265,625,SBD,
4,Alejandro Jimenez,M,26,USA,Wraps,M_OCR_WPC,74,75,210,215,222.5,,222.5,137.5,145,-152.5,,145,235,250,257.5,,257.5,625,SBD,
5,William Tovell,M,27,England,Wraps,M_OCR_WPC,73.25,75,215,230,-235,,230,117.5,125,-132.5,,125,225,245,-260,,245,600,SBD,
6,Fábio Alexandre,M,29,Portugal,Wraps,M_OCR_WPC,73.45,75,200,210,220,,220,115,120,-125,,120,230,242.5,250,,250,590,SBD,
7,Mozaïone Dispagne,M,28,France,Wraps,M_OCR_WPC,71.6,75,200,-215,220,,220,110,120,-127.5,,120,230,240,-247.5,,240,580,SBD,
8,Tshepaone Makgetla,M,31,South Africa,Wraps,M_OCR_WPC,74.5,75,180,200,-220,,200,120,135,-145,,135,200,220,-225,,220,555,SBD,
9,Branden Riggs,M,25,USA,Wraps,M_OCR_WPC,74.05,75,-175,190,200,,200,125,132.5,-140,,132.5,185,197.5,207.5,,207.5,540,SBD,
DQ,Michael Zerbini,M,25,Italy,Wraps,M_OCR_WPC,71.8,75,-217.5,-220,-220,,,,,,,,,,,,,,SBD,
1,Derek Abbott #1,M,39,Ireland,Wraps,M_OCR_WPC,80.9,82.5,-265,265,-270,,265,155,-165,-165,,155,250,275,,,275,695,SBD,
2,Justin Miller,M,25,USA,Wraps,M_OCR_WPC,80.4,82.5,195,205,-217.5,,205,125,135,-140,,135,235,250,-255,,250,590,SBD,
1,Dayle Longford,M,35,Wales,Wraps,M_OCR_WPC,88.3,90,300,325,-340,,325,210,220,227.5,,227.5,330,-332.5,-354.5,,330,882.5,SBD,
2,Keenan Freer,M,24,England,Wraps,M_OCR_WPC,89.35,90,275,295,305,,305,150,-160,160,,160,290,-307.5,-307.5,,290,755,SBD,
3,Tyler Small,M,29,Australia,Wraps,M_OCR_WPC,88.55,90,260,275,280,,280,162.5,170,175,,175,250,262.5,265,,265,720,SBD,
DQ,Gabriel Singer,M,27,England,Wraps,M_OCR_WPC,87.95,90,-235,-235,-250,,,,,,,,,,,,,,SBD,
DQ,Lucas Rogojinaru,M,25,France,Wraps,M_OCR_WPC,90,90,-255,272.5,-280,,272.5,,,,,,,,,,,,SBD,
1,Eetu Sieppi,M,28,Finland,Wraps,M_OCR_WPC,94.75,100,350,380,,,380,170,185,195,,195,305,330,-342.5,,330,905,SBD,
2,Jon May,M,32,England,Wraps,M_OCR_WPC,97.9,100,280,-300,300,,300,175,180,-185,,180,300,315,-320,,315,795,SBD,
3,Josh Brown #2,M,40,Australia,Wraps,M_OCR_WPC,99.3,100,302.5,310,-317.5,,310,175,182.5,-187.5,,182.5,270,285,295,,295,787.5,SBD,
4,Aamar Mahmood,M,36,England,Raw,M_OCR_WPC,99.3,100,255,267.5,-272.5,,267.5,-215,220,-225,,220,280,292.5,297.5,,297.5,785,SBD,
5,Louis Brackeleer,M,30,France,Wraps,M_OCR_WPC,99.1,100,285,305,-315,,305,155,-165,165,,165,280,300,-312.5,,300,770,SBD,
6,Adam Gardner #1,M,35,USA,Wraps,M_OCR_WPC,100,100,277.5,-292.5,-300,,277.5,155,172.5,-177.5,,172.5,282.5,305,-315,,305,755,SBD,
7,Flavien Martinet,M,28,France,Wraps,M_OCR_WPC,98.7,100,240,250,-257.5,,250,170,177.5,182.5,,182.5,270,280,287.5,,287.5,720,SBD,
8,Richard Ingham,M,32,England,Wraps,M_OCR_WPC,98.65,100,260,280,-290,,280,150,160,-170,,160,250,270,-282.5,,270,710,SBD,
DQ,Herman Fibranz,M,39,France,Wraps,M_OCR_WPC,99.8,100,-275,-275,,,,,,,,,,,,,,,SBD,
1,Julien Dufour,M,27,France,Wraps,M_OCR_WPC,109.2,110,290,310,-320,,310,185,192.5,-197.5,,192.5,275,-300,300,,300,802.5,SBD,
2,Tom Croxton,M,25,England,Wraps,M_OCR_WPC,109.65,110,-285,-285,285,,285,172.5,177.5,180,,180,310,335,-340,,335,800,SBD,
3,Edgaras Kreipavicius,M,36,England,Wraps,M_OCR_WPC,106.95,110,-320,-320,320,,320,160,167.5,-175,,167.5,300,-315,,,300,787.5,SBD,
4,David Stanton,M,31,Australia,Wraps,M_OCR_WPC,108.9,110,295,-305,305,,305,140,150,-155,,150,250,280,-290,,280,735,SBD,
5,Michael van Ness,M,30,Germany,Wraps,M_OCR_WPC,109.3,110,230,250,260,,260,150,155,-160,,155,280,300,310,,310,725,SBD,
6,Justin Legarra,M,24,USA,Wraps,M_OCR_WPC,109.75,110,-240,250,-260,,250,145,-152.5,152.5,,152.5,245,272.5,-280,,272.5,675,SBD,
1,Edgar Katushabe,M,30,South Africa,Wraps,M_OCR_WPC,116.5,125,305,-317.5,317.5,,317.5,202.5,-210,210,,210,325,350,-373,,350,877.5,SBD,
2,Jack Morecroft,M,31,England,Wraps,M_OCR_WPC,124.2,125,310,325,332.5,,332.5,182.5,192.5,-200,,192.5,300,312.5,317.5,,317.5,842.5,SBD,
3,Rob Warburton,M,40,England,Wraps,M_OCR_WPC,124.6,125,330,-360,-360,,330,130,-140,,,130,310,330,,,330,790,SBD,
4,Moritz Schlüter,M,26,Germany,Wraps,M_OCR_WPC,121.5,125,240,260,-270,,260,140,150,155,,155,270,290,300,,300,715,SBD,
5,Anthony Cruz,M,32,USA,Wraps,M_OCR_WPC,117.2,125,-237.5,-237.5,240,242.5,240,147.5,152.5,-162.5,,152.5,237.5,255,270,,270,662.5,SBD,
6,Cesar Aragon,M,24,Mexico,Wraps,M_OCR_WPC,117.3,125,-250,250,-265,,250,117.5,125,-132.5,,125,250,265,272.5,,272.5,647.5,SBD,
DQ,Byron George,M,27,England,Wraps,M_OCR_WPC,117.6,125,-340,-340,-370,,,,,,,,,,,,,,SBD,
1,David Onyeme,M,31,England,Wraps,M_OCR_WPC,133.95,140,320,-340,-340,,320,190,200,-210,,200,345,365,-375,,365,885,SBD,
2,Cory Carter,M,33,USA,Wraps,M_OCR_WPC,138.8,140,-155,175,200,,200,120,140,-160,,140,175,190,217.5,,217.5,557.5,SBD,
DQ,Lewis Griffin,M,27,England,Wraps,M_OCR_WPC,134.35,140,320,340,,,340,,,,,,,,,,,,SBD,
DQ,Jordan Bunting,M,26,England,Wraps,M_OCR_WPC,137.6,140,330,-355,-365,,330,,,,,,,,,,,,SBD,
1,Hamed Khallaf,M,34,Egypt,Wraps,M_OCR_WPC,142.65,140+,350,370,390,,390,190,200,205,,205,340,-360,360,,360,955,SBD,
NS,Serena Salis,F,22,Italy,Wraps,F_JCR_WPC,,,,,,,,,,,,,,,,,,,SBD,
1,Nicole Weideman,F,21,South Africa,Wraps,F_JCR_WPC,60,60,145,156,162.5,,162.5,70,75,-77.5,,75,152.5,-165.5,-165.5,,152.5,390,SBD,
1,Lauren Cavanagh,F,23,Australia,Wraps,F_JCR_WPC,67,67.5,145,160,-170,,160,92.5,100,105,-105.5,105,160,175,185.5,,185.5,450.5,SBD,
1,Lefer Maguelone,F,20,France,Wraps,F_JCR_WPC,74.9,75,137.5,142.5,-150,,142.5,75,80,82.5,,82.5,170,180,185,,185,410,SBD,
NS,Rowan Zunckel,F,40,South Africa,Wraps,F_MCR_1_WPC,,,,,,,,,,,,,,,,,,,SBD,
1,Tania Robins,F,40,England,Wraps,F_MCR_1_WPC,51.25,52,100,107.5,-115,,107.5,45,50,52.5,,52.5,140,147.5,155,,155,315,SBD,
1,Amy Froneman,F,43,South Africa,Wraps,F_MCR_1_WPC,55.6,56,115,120,-125.5,,120,57.5,60,-62.5,,60,145,-155,-155,,145,325,SBD,
2,Asha Pochin,F,43,Australia,Wraps,F_MCR_1_WPC,55.3,56,105,110,115,,115,52.5,57.5,,,57.5,132.5,140,-152.5,,140,312.5,SBD,
1,Michelle Keeffe,F,44,Australia,Wraps,F_MCR_1_WPC,58.25,60,105,115,-122.5,,115,55,57.5,60,,60,-105,105,120,,120,295,SBD,
2,Fiona Campbell,F,43,England,Wraps,F_MCR_1_WPC,58.05,60,-90,92.5,97.5,,97.5,52.5,-57.5,60,,60,112.5,120,122.5,,122.5,280,SBD,
1,Debbie Duggan,F,42,Ireland,Wraps,F_MCR_1_WPC,65.6,67.5,125,137.5,145,,145,67.5,75,-82.5,,75,150,160,-167.5,,160,380,SBD,
1,Rosha Whitaker,F,46,USA,Wraps,F_MCR_2_WPC,74.4,75,207.5,-220,-220,,207.5,115,122.5,-128,,122.5,192.5,217.5,-222.5,,217.5,547.5,SBD,
1,Sarah Butler #1,F,41,Australia,Wraps,F_MCR_1_WPC,77.95,82.5,120,127.5,132.5,,132.5,70,72.5,-75,,72.5,155,165,-175,,165,370,SBD,
1,Helen Redhead,F,43,England,Wraps,F_MCR_1_WPC,84.75,90,125,132.5,135,,135,50,52.5,55,,55,140,150,-160,,150,340,SBD,
2,Asia Bell,F,42,USA,Wraps,F_MCR_1_WPC,90,90,62.5,92.5,-112.5,,92.5,-90,90,-92.5,,90,102.5,-165,,,102.5,285,SBD,
3,Crystal Payne,F,41,USA,Wraps,F_MCR_1_WPC,87.6,90,-70,-70,70,,70,42.5,47.5,-50,,47.5,92.5,97.5,-102.5,,97.5,215,SBD,
1,Janet Morang,F,40,USA,Wraps,F_MCR_1_WPC,122,110+,125,-137.5,-137.5,,125,62.5,-70,-70,,62.5,137.5,145,-152.5,,145,332.5,SBD,
1,Poipin Douglas,F,47,Ireland,Wraps,F_MCR_2_WPC,65.85,67.5,90,97.5,100,,100,52.5,-55,55,,55,95,-100,,,95,250,SBD,
2,Babs Milaszkiewicz,F,46,England,Wraps,F_MCR_2_WPC,71.75,75,135,-145,145,,145,70,80,-85,,80,155,170,175,,175,400,SBD,
3,Natasha Gee,F,46,England,Wraps,F_MCR_2_WPC,73.4,75,115,-125,130,,130,62.5,67.5,-70,,67.5,137.5,147.5,-152.5,,147.5,345,SBD,
1,Mioara Mara Vizinteanu,F,46,Ireland,Wraps,F_MCR_2_WPC,81.05,82.5,110,-115,117.5,,117.5,65,70,72.5,,72.5,142.5,147.5,-150,,147.5,337.5,SBD,
NS,Charlie Beardsley,F,53,England,Wraps,F_MCR_3_WPC,,,,,,,,,,,,,,,,,,,SBD,
1,Donna Bradbury,F,50,England,Wraps,F_MCR_3_WPC,55.5,56,112.5,117.5,125,,125,62.5,65,68,,68,137.5,145,152.5,,152.5,345.5,SBD,
1,Belinda Ryder,F,52,Australia,Wraps,F_MCR_3_WPC,59.05,60,160,170,177.5,-180,177.5,85,90,92.5,,92.5,185,-192.5,-192.5,,185,455,SBD,
1,Robin Miller,F,52,USA,Wraps,F_MCR_3_WPC,60.85,67.5,90,107.5,110,,110,-72.5,75,-77.5,,75,135,155,165,,165,350,SBD,
1,Jacinta Smith,F,50,Ireland,Wraps,F_MCR_3_WPC,119.35,110+,160,172.5,180,,180,65,-75,75,,75,155,165,170,,170,425,SBD,
1,Monica Cook,F,59,Australia,Wraps,F_MCR_4_WPC,64.45,67.5,115,125,130,-131,130,90,-95,95,,95,130,140,,,140,365,SBD,
1,Mo Proctor,F,57,England,Wraps,F_MCR_4_WPC,89.6,90,115,125,135.5,,135.5,65,70,-77.5,,70,132.5,142.5,-152.5,,142.5,348,SBD,
1,Linda Hicks,F,61,England,Wraps,F_MCR_5_WPC,72.25,75,100,-105,-105,,100,65,70,-72.5,,70,120,130,135,,135,305,SBD,
NS,Maiju Pohjanoro,F,66,Finland,Wraps,F_MCR_6_WPC,,,,,,,,,,,,,,,,,,,SBD,
1,Pauline Dolan,F,66,England,Wraps,F_MCR_6_WPC,88.65,90,-122.5,122.5,-127.5,,122.5,-65,65,67.5,,67.5,152.5,-157.5,-157.5,,152.5,342.5,SBD,
NS,Rowan Zunckel,F,40,South Africa,Wraps,F_OCR_WPC,,,,,,,,,,,,,,,,,,,SBD,
1,Megan Bernard,F,29,England,Wraps,F_OCR_WPC,47.2,48,-85,85,90,,90,40,42.5,-45,,42.5,130,140.5,142.5,-145,142.5,275,SBD,
2,Rebecca Johnson,F,25,USA,Wraps,F_OCR_WPC,47.65,48,87.5,95,-97.5,,95,50,-55,-55,,50,95,97.5,102.5,,102.5,247.5,SBD,
3,Elizabeth Browne,F,35,Australia,Wraps,F_OCR_WPC,47.5,48,75,80,-85,,80,37.5,40,42.5,,42.5,110,-117.5,117.5,,117.5,240,SBD,
1,Esther Rimmer,F,36,England,Wraps,F_OCR_WPC,49,52,130,137.5,-142.5,,137.5,65,70,-72.5,,70,140,147.5,-155,,147.5,355,SBD,
1,Asha Pochin,F,43,Australia,Wraps,F_OCR_WPC,55.3,56,105,110,115,,115,52.5,57.5,,,57.5,132.5,140,-152.5,,140,312.5,SBD,
1,Belinda Ryder,F,52,Australia,Wraps,F_OCR_WPC,59.05,60,160,170,177.5,-180,177.5,85,90,92.5,,92.5,185,-192.5,-192.5,,185,455,SBD,
2,Nicolette Mayer,F,37,South Africa,Wraps,F_OCR_WPC,58.85,60,125,-135,-135,,125,60,62.5,-65,,62.5,125,-135,-135,,125,312.5,SBD,
1,Kimber-Lee Hicks,F,35,England,Wraps,F_OCR_WPC,67.45,67.5,-190,205,-220,,205,95,102.5,-107.5,,102.5,200,-220,-220,,200,507.5,SBD,
2,Anna Bailey #1,F,36,Australia,Wraps,F_OCR_WPC,66.1,67.5,152.5,165,175,,175,75,-80,-80,,75,180,-200,-200,,180,430,SBD,
3,Agnès Andre,F,36,France,Wraps,F_OCR_WPC,67.4,67.5,-170,-170,170,,170,80,-90,-90,,80,170,-180,180,,180,430,SBD,
4,Vilhelmiina Sillanpää,F,28,Finland,Wraps,F_OCR_WPC,67.2,67.5,155,-170,-177.5,,155,67.5,72.5,-77.5,,72.5,160,165,-170,,165,392.5,SBD,
5,Dalia Abdelghany,F,28,Egypt,Wraps,F_OCR_WPC,61.45,67.5,150,-155,155,,155,70,72.5,75,,75,150,155,-157.5,,155,385,SBD,
6,Elaine Yu,F,38,England,Wraps,F_OCR_WPC,65.3,67.5,132.5,142.5,-150,,142.5,77.5,-82.5,-82.5,,77.5,160,-172.5,-175,,160,380,SBD,
7,Chantelle Buitendag,F,34,South Africa,Wraps,F_OCR_WPC,66.45,67.5,115,120,-125,,120,55,-57.5,57.5,,57.5,120,130,140,,140,317.5,SBD,
1,Rosha Whitaker,F,46,USA,Wraps,F_OCR_WPC,74.4,75,207.5,-220,-220,,207.5,115,122.5,-128,,122.5,192.5,217.5,-222.5,,217.5,547.5,SBD,
2,Kara Shaw,F,35,England,Wraps,F_OCR_WPC,72.2,75,145,155,165,,165,-87.5,92.5,-97.5,,92.5,-167.5,175,180,,180,437.5,SBD,
3,Kelly-Ann King,F,37,Australia,Wraps,F_OCR_WPC,74.55,75,145,155,160,,160,67.5,72.5,75,,75,160,172.5,180,,180,415,SBD,
1,Jessica Nemouthe,F,27,France,Wraps,F_OCR_WPC,75.1,82.5,185,200,-210,,200,90,105,-110,,105,180,195,-200,,195,500,SBD,
2,Lynzi Shepherd,F,36,England,Wraps,F_OCR_WPC,82.3,82.5,150,170,180,,180,70,75,80,,80,152.5,162.5,-170,,162.5,422.5,SBD,
3,Dagmar Friedrich,F,34,Germany,Wraps,F_OCR_WPC,80.45,82.5,157.5,165,172.5,,172.5,70,77.5,-80,,77.5,155,165,-172.5,,165,415,SBD,
4,Sarah Butler #1,F,41,Australia,Wraps,F_OCR_WPC,77.95,82.5,120,127.5,132.5,,132.5,70,72.5,-75,,72.5,155,165,-175,,165,370,SBD,
5,Erin McCabe,F,34,Australia,Wraps,F_OCR_WPC,79.75,82.5,120,127.5,-135,,127.5,62.5,67.5,70,,70,140,150,-152.5,,150,347.5,SBD,
1,Helen Harrison,F,36,England,Wraps,F_OCR_WPC,89.95,90,180,200,-220,,200,100,110,-115,,110,210,220,-235,,220,530,SBD,
1,Tanya Maldonado,F,31,USA,Wraps,F_OCR_WPC,94.65,100,195,-197.5,197.5,,197.5,90,-95,95,,95,175,187.5,-200,,187.5,480,SBD,
1,Emma James,F,35,Australia,Wraps,F_OCR_WPC,129.25,110+,137.5,150,160,,160,85,90,-95,,90,150,160,-170,,160,410,SBD,
2,Janet Morang,F,40,USA,Wraps,F_OCR_WPC,122,110+,125,-137.5,-137.5,,125,62.5,-70,-70,,62.5,137.5,145,-152.5,,145,332.5,SBD,
3,Anokhi Patel,F,24,India,Wraps,F_OCR_WPC,110.1,110+,-100,110,-125,,110,40,50,-57.5,,50,120,130,137.5,,137.5,297.5,SBD,
1,Sara Honkakangas,F,14,Finland,Wraps,F_TCR_1_WPC,59.05,60,80,90,95,-100,95,42.5,47.5,-50,,47.5,100,105,110,120,110,252.5,SBD,
1,Vivian Ihanmäki,F,16,Finland,Wraps,F_TCR_2_WPC,49.35,52,75.5,82.5,-90,,82.5,42.5,45,-50,,45,85,92.5,-100.5,,92.5,220,SBD,
1,Lily Ann Day,F,17,South Africa,Wraps,F_TCR_2_WPC,57.95,60,105,110,115,,115,-47.5,52.5,-55,,52.5,105,115,-120,,115,282.5,SBD,
1,Natasha Urbanik,F,17,South Africa,Wraps,F_TCR_2_WPC,71.5,75,155,165,170,,170,55,60,,,60,142.5,152.5,160,,160,390,SBD,
NS,Jacqueline Diaz,F,18,USA,Wraps,F_TCR_3_WPC,,,,,,,,,,,,,,,,,,,SBD,
1,Giulia Polimeno,F,19,Italy,Wraps,F_TCR_3_WPC,51.8,52,120,125,130,132.5,130,52.5,55,57.5,,57.5,115,120,125,,125,312.5,SBD,
1,Clemence Chasseriau,F,18,France,Wraps,F_TCR_3_WPC,59.35,60,92.5,-97.5,97.5,,97.5,57.5,60,-62.5,,60,135,142.5,-147.5,,142.5,300,SBD,
1,Abigail Fisher,F,19,South Africa,Wraps,F_TCR_3_WPC,141.05,110+,165,175,-185,,175,57.5,62.5,65,,65,125,135,140,,140,380,SBD,
NS,Alice Nicolini,F,20,Italy,Raw,F_JR_WPC,,,,,,,,,,,,,,,,,,,B,
1,Josie Thomas #2,F,43,England,Raw,F_MR_1_WPC,61.35,67.5,,,,,,75,80,-82.5,,80,,,,,,80,B,
1,Natalie Johnson,F,41,England,Raw,F_MR_1_WPC,74.15,75,,,,,,87.5,-92.5,-92.5,,87.5,,,,,,87.5,B,
1,Helen Redhead,F,43,England,Raw,F_MR_1_WPC,85.2,90,,,,,,45,52.5,-60,,52.5,,,,,,52.5,B,
1,Sherie Reed,F,43,England,Raw,F_MR_1_WPC,95.6,100,,,,,,62.5,72.5,-80,,72.5,,,,,,72.5,B,
1,Sal Lack,F,46,England,Raw,F_MR_2_WPC,99.1,100,,,,,,-77.5,80,-85,,80,,,,,,80,B,
2,Katja Weber-Menne,F,50,Germany,Raw,F_MR_3_WPC,67.25,67.5,,,,,,55,65,-67.5,,65,,,,,,65,B,
3,Zsanett Pálfalvi,F,50,Hungary,Raw,F_MR_3_WPC,64.6,67.5,,,,,,55,60,-62.5,,60,,,,,,60,B,
1,Amanda Walters,F,54,England,Raw,F_MR_3_WPC,62.1,67.5,,,,,,70,75,77.5,-80,77.5,,,,,,77.5,B,
1,Hetty Salmon,F,57,England,Raw,F_MR_4_WPC,86.45,90,,,,,,67.5,72.5,-77.5,,72.5,,,,,,72.5,B,
1,Louise Picknett,F,61,England,Raw,F_MR_5_WPC,87.85,90,,,,,,50,52.5,-55,,52.5,,,,,,52.5,B,
1,Catherine Wass,F,66,England,Raw,F_MR_6_WPC,66.45,67.5,,,,,,67.5,72.5,77.5,,77.5,,,,,,77.5,B,
NS,Marelyn Redjosetiko,F,30,France,Raw,F_OR_WPC,,,,,,,,,,,,,,,,,,,B,
1,Donika,F,24,India,Raw,F_OR_WPC,55.75,56,,,,,,45,-50,-50,,45,,,,,,45,B,
1,Sophie Clarkson,F,32,England,Raw,F_OR_WPC,59.15,60,,,,,,72.5,77.5,-82.5,,77.5,,,,,,77.5,B,
1,Natalie Johnson,F,41,England,Raw,F_OR_WPC,74.15,75,,,,,,87.5,-92.5,-92.5,,87.5,,,,,,87.5,B,
1,Natalie O'Shea,F,37,England,Raw,F_OR_WPC,78.35,82.5,,,,,,110,115,120,,120,,,,,,120,B,
2,Emma Clayson,F,33,Australia,Raw,F_OR_WPC,79.8,82.5,,,,,,97.5,100,102.5,,102.5,,,,,,102.5,B,
1,Ayecia Bryant,F,37,USA,Raw,F_OR_WPC,86.55,90,,,,,,82.5,92.5,-97.5,,92.5,,,,,,92.5,B,
2,Elaine Rollo,F,41,England,Raw,F_OR_WPC,88.5,90,,,,,,80,90,-100,,90,,,,,,90,B,
1,Anokhi Patel,F,24,India,Raw,F_OR_WPC,109.3,110,,,,,,42.5,50,52.5,,52.5,,,,,,52.5,B,
1,Julia Chowaniak,F,15,Poland,Raw,F_TR_1_WPC,65.9,67.5,,,,,,45,47.5,-50,,47.5,,,,,,47.5,B,
1,Márton Csák,M,20,Hungary,Raw,M_JR_WPC,74.55,75,,,,,,110,117.5,-120,,117.5,,,,,,117.5,B,
1,Léo Ottinger,M,23,France,Raw,M_JR_WPC,89.15,90,,,,,,200,210,215,,215,,,,,,215,B,
1,Thomas Pearson,M,23,England,Raw,M_JR_WPC,124.35,125,,,,,,140,150,-155,,150,,,,,,150,B,
NS,Andrew Whitaker,M,40,England,Raw,M_MR_1_WPC,,,,,,,,,,,,,,,,,,,B,
NS,Jeron Roberson,M,41,USA,Raw,M_MR_1_WPC,,,,,,,,,,,,,,,,,,,B,
1,Jason Pearson #2,M,43,England,Raw,M_MR_1_WPC,67.25,67.5,,,,,,92.5,95,-100,,95,,,,,,95,B,
1,Darren Robertson,M,40,England,Raw,M_MR_1_WPC,74.1,75,,,,,,117.5,125,-127.5,,125,,,,,,125,B,
1,David Zahedi,M,43,England,Raw,M_MR_1_WPC,81.6,82.5,,,,,,152.5,157.5,160,,160,,,,,,160,B,
2,Bastien Riou,M,41,France,Raw,M_MR_1_WPC,81.55,82.5,,,,,,145,155,-160,,155,,,,,,155,B,
3,Joni Oravasaari,M,41,Finland,Raw,M_MR_1_WPC,82,82.5,,,,,,140,147.5,150,,150,,,,,,150,B,
1,Oskari Koljonen,M,41,Finland,Raw,M_MR_1_WPC,89.7,90,,,,,,170,180,-185,,180,,,,,,180,B,
2,Chris Pike #1,M,41,England,Raw,M_MR_1_WPC,88.6,90,,,,,,165,172.5,177.5,,177.5,,,,,,177.5,B,
1,Gilbert Louisie,M,44,France,Raw,M_MR_1_WPC,90.4,100,,,,,,180,195,-200,,195,,,,,,195,B,
2,Daniel Fisher #7,M,41,England,Raw,M_MR_1_WPC,98.95,100,,,,,,105,107.5,112.5,,112.5,,,,,,112.5,B,
1,Tommy Collins,M,42,Ireland,Raw,M_MR_1_WPC,104,110,,,,,,170,180,185,,185,,,,,,185,B,
2,Paweł Husak,M,43,Poland,Raw,M_MR_1_WPC,107.65,110,,,,,,180,-190,-190,,180,,,,,,180,B,
1,Baz Newman,M,40,England,Raw,M_MR_1_WPC,121.95,125,,,,,,200,-215,-215,,200,,,,,,200,B,
2,Tom Lorenz,M,43,Germany,Raw,M_MR_1_WPC,122,125,,,,,,195,-202.5,-202.5,,195,,,,,,195,B,
3,Uwe Spitzer,M,44,Germany,Raw,M_MR_1_WPC,122,125,,,,,,-165,170,-177.5,,170,,,,,,170,B,
4,David Cross,M,43,South Africa,Raw,M_MR_1_WPC,115.2,125,,,,,,155,165,-172.5,,165,,,,,,165,B,
5,Mark Caroli,M,41,England,Raw,M_MR_1_WPC,118.55,125,,,,,,160,165,-170,,165,,,,,,165,B,
1,Marco Monea,M,41,Italy,Raw,M_MR_1_WPC,137.25,140,,,,,,130,140,-150,,140,,,,,,140,B,
1,Frank Rodriguez #1,M,40,England,Raw,M_MR_1_WPC,142.4,140+,,,,,,200,210,220,,220,,,,,,220,B,
1,Stephen Rigley,M,47,Ireland,Raw,M_MR_2_WPC,77.05,82.5,,,,,,122.5,127.5,-130,,127.5,,,,,,127.5,B,
1,Flonindo Figueiredo,M,49,Portugal,Raw,M_MR_2_WPC,88.7,90,,,,,,205,-212.5,-212.5,,205,,,,,,205,B,
2,Alexander Benik,M,49,Germany,Raw,M_MR_2_WPC,89.1,90,,,,,,165,-170,-170,,165,,,,,,165,B,
1,Maciej Jaworski,M,45,Ireland,Raw,M_MR_2_WPC,97.25,100,,,,,,157.5,167.5,172.5,,172.5,,,,,,172.5,B,
2,Jamie Bailey #1,M,48,England,Raw,M_MR_2_WPC,96.35,100,,,,,,150,160,-170,,160,,,,,,160,B,
1,William McNeil,M,46,England,Raw,M_MR_2_WPC,109.65,110,,,,,,180,190,200,,200,,,,,,200,B,
1,Marcus Charman,M,46,England,Raw,M_MR_2_WPC,119.9,125,,,,,,180,195,-200,,195,,,,,,195,B,
1,Marcin Zwierzchowski,M,45,Poland,Raw,M_MR_2_WPC,130.15,140,,,,,,220,230,-240,,230,,,,,,230,B,
2,Artur Kiczuk,M,45,Poland,Raw,M_MR_2_WPC,127.7,140,,,,,,190,200,205,,205,,,,,,205,B,
1,Stéphane Ledogar,M,50,France,Raw,M_MR_3_WPC,59,60,,,,,,80,85,87.5,,87.5,,,,,,87.5,B,
1,Klaus Renfors,M,50,Finland,Raw,M_MR_3_WPC,89.1,90,,,,,,150,162.5,167.5,,167.5,,,,,,167.5,B,
2,Fraser Montgomery,M,53,England,Raw,M_MR_3_WPC,89.5,90,,,,,,102.5,107.5,110,,110,,,,,,110,B,
1,Rob Preston,M,54,England,Raw,M_MR_3_WPC,95.6,100,,,,,,140,160,-187.5,,160,,,,,,160,B,
2,Teppo Koskinen,M,50,Finland,Raw,M_MR_3_WPC,99,100,,,,,,130,140,150,,150,,,,,,150,B,
1,Dominique Nussbaum,M,52,France,Raw,M_MR_3_WPC,109,110,,,,,,180,190,200,,200,,,,,,200,B,
2,Radosław Kaleta,M,50,England,Raw,M_MR_3_WPC,101.95,110,,,,,,155,165,-172.5,,165,,,,,,165,B,
3,Darren Stafford,M,50,England,Raw,M_MR_3_WPC,108.15,110,,,,,,130,140,-147.5,,140,,,,,,140,B,
1,Krzysztof Chowaniak,M,50,Poland,Raw,M_MR_3_WPC,119.7,125,,,,,,180,192.5,-200,,192.5,,,,,,192.5,B,
2,Jason Swalwell,M,52,England,Raw,M_MR_3_WPC,121.95,125,,,,,,160,170,180,,180,,,,,,180,B,
1,Stuart Hamilton,M,59,England,Raw,M_MR_4_WPC,87.7,90,,,,,,155,160,-165,,160,,,,,,160,B,
1,Tilo Kupper,M,59,Switzerland,Raw,M_MR_4_WPC,93,100,,,,,,155,157.5,-160,,157.5,,,,,,157.5,B,
1,Charlie Evans #1,M,58,England,Raw,M_MR_4_WPC,120.9,125,,,,,,157.5,162.5,-165,,162.5,,,,,,162.5,B,
1,George Doneathy,M,56,England,Raw,M_MR_4_WPC,169.6,140+,,,,,,-200,-227.5,227.5,,227.5,,,,,,227.5,B,
1,Tahvo Jauhojärvi,M,61,Finland,Raw,M_MR_5_WPC,74.8,75,,,,,,127.5,137.5,142.5,,142.5,,,,,,142.5,B,
1,Fred Pommerenke,M,61,Germany,Raw,M_MR_5_WPC,79.5,82.5,,,,,,92.5,-95,-95,,92.5,,,,,,92.5,B,
1,Gabor Kovacs,M,61,Hungary,Raw,M_MR_5_WPC,88.45,90,,,,,,-100,100,110,,110,,,,,,110,B,
1,Miklós Pomázi,M,60,Hungary,Raw,M_MR_5_WPC,95,100,,,,,,160,165,167.5,,167.5,,,,,,167.5,B,
1,Terry Dvorak,M,60,USA,Raw,M_MR_5_WPC,128.3,140,,,,,,147.5,-157.5,157.5,,157.5,,,,,,157.5,B,
1,Hartmut Niemann,M,69,Germany,Raw,M_MR_6_WPC,81.3,82.5,,,,,,115,122.5,130,,130,,,,,,130,B,
2,Neil Bacon,M,66,England,Raw,M_MR_6_WPC,81.05,82.5,,,,,,115,120,-122.5,,120,,,,,,120,B,
1,John Carney #1,M,65,England,Raw,M_MR_6_WPC,88.95,90,,,,,,110,120,-125,,120,,,,,,120,B,
1,Bruce McIntyre,M,66,Canada,Raw,M_MR_6_WPC,94,100,,,,,,-152.5,152.5,-155,,152.5,,,,,,152.5,B,
2,Ian Harvey,M,66,Australia,Raw,M_MR_6_WPC,96.55,100,,,,,,25,35,45,,45,,,,,,45,B,
1,Mieczysław Pawlukiewicz,M,69,Poland,Raw,M_MR_6_WPC,104.65,110,,,,,,167.5,170,180,,180,,,,,,180,B,
1,Joannis Sulime,M,72,France,Raw,M_MR_7_WPC,73.1,75,,,,,,90,95,100,,100,,,,,,100,B,
1,Tapio Laine,M,71,Finland,Raw,M_MR_7_WPC,113.85,125,,,,,,140,147.5,152.5,,152.5,,,,,,152.5,B,
1,Kazimierz Michael Forys,M,78,Germany,Raw,M_MR_8_WPC,95.25,100,,,,,,115,125.5,130,,130,,,,,,130,B,
1,Iosif Plagov,M,88,USA,Raw,M_MR_X_WPC,66,67.5,,,,,,75,80,82.5,-86,82.5,,,,,,82.5,B,
NS,Andrew Whitaker,M,40,England,Raw,M_OR_WPC,,,,,,,,,,,,,,,,,,,B,
NS,Bertin Olivier,M,39,France,Raw,M_OR_WPC,,,,,,,,,,,,,,,,,,,B,
NS,Dimitri Reims,M,30,France,Raw,M_OR_WPC,,,,,,,,,,,,,,,,,,,B,
NS,Giovanni Martotaroeno,M,38,France,Raw,M_OR_WPC,,,,,,,,,,,,,,,,,,,B,
NS,Lorenzo Pinas,M,34,France,Raw,M_OR_WPC,,,,,,,,,,,,,,,,,,,B,
1,Jason Pearson #2,M,43,England,Raw,M_OR_WPC,67.25,67.5,,,,,,92.5,95,-100,,95,,,,,,95,B,
1,Johann Champ,M,36,France,Raw,M_OR_WPC,74.65,75,,,,,,162.5,172.5,-177.5,,172.5,,,,,,172.5,B,
2,Samuel Constum,M,34,France,Raw,M_OR_WPC,74.45,75,,,,,,165,170,-172.5,,170,,,,,,170,B,
1,Mohit Dugg,M,32,India,Raw,M_OR_WPC,79.7,82.5,,,,,,155,157.5,160,,160,,,,,,160,B,
2,David Zahedi,M,43,England,Raw,M_OR_WPC,81.6,82.5,,,,,,152.5,157.5,160,,160,,,,,,160,B,
1,Marcin Garbas,M,38,Poland,Raw,M_OR_WPC,83.6,90,,,,,,205,210,215,,215,,,,,,215,B,
2,Flonindo Figueiredo,M,49,Portugal,Raw,M_OR_WPC,88.7,90,,,,,,205,-212.5,-212.5,,205,,,,,,205,B,
3,Yannick Laubscher,M,26,England,Raw,M_OR_WPC,87.85,90,,,,,,170,180,-190,,180,,,,,,180,B,
4,Oskari Koljonen,M,41,Finland,Raw,M_OR_WPC,89.7,90,,,,,,170,180,-185,,180,,,,,,180,B,
5,Chris Pike #1,M,41,England,Raw,M_OR_WPC,88.6,90,,,,,,165,172.5,177.5,,177.5,,,,,,177.5,B,
6,Jacob Roost,M,34,England,Raw,M_OR_WPC,90,90,,,,,,150,-155,-155,,150,,,,,,150,B,
7,Sunit Gautam,M,24,India,Raw,M_OR_WPC,87.66,90,,,,,,85,-90,-90,,85,,,,,,85,B,
1,Emanuele Di Giampaolo,M,33,Italy,Raw,M_OR_WPC,90.3,100,,,,,,162.5,165,-167.5,,165,,,,,,165,B,
2,Matthew Brown #14,M,37,England,Raw,M_OR_WPC,98.65,100,,,,,,160,165,-167.5,,165,,,,,,165,B,
3,Krzysztof Mocek,M,38,England,Raw,M_OR_WPC,95.9,100,,,,,,152.5,-162.5,-162.5,,152.5,,,,,,152.5,B,
4,Isaac Roberts,M,25,England,Raw,M_OR_WPC,99.15,100,,,,,,135,-142.5,142.5,,142.5,,,,,,142.5,B,
1,Jani Virtanen,M,28,Finland,Raw,M_OR_WPC,105.55,110,,,,,,210,217.5,-225,,217.5,,,,,,217.5,B,
2,William McNeil,M,46,England,Raw,M_OR_WPC,109.65,110,,,,,,180,190,200,,200,,,,,,200,B,
3,David Berrueco,M,30,Portugal,Raw,M_OR_WPC,103.45,110,,,,,,170,185,-200,,185,,,,,,185,B,
4,Daniel Tallis,M,37,England,Raw,M_OR_WPC,109.9,110,,,,,,-170,175,185,,185,,,,,,185,B,
DQ,Craig Corkovic,M,38,England,Raw,M_OR_WPC,100.85,110,,,,,,-182.5,-182.5,,,,,,,,,,B,
1,Sveinn Elíasson,M,34,Iceland,Raw,M_OR_WPC,123,125,,,,,,240,245,250,,250,,,,,,250,B,1989-08-17
2,François Abelafoe,M,40,France,Raw,M_OR_WPC,120.25,125,,,,,,210,220,245,,245,,,,,,245,B,
3,Oliver Bertin,M,39,France,Raw,M_OR_WPC,117.6,125,,,,,,-200,200,207.5,,207.5,,,,,,207.5,B,
4,Baz Newman,M,40,England,Raw,M_OR_WPC,121.95,125,,,,,,200,-215,-215,,200,,,,,,200,B,
5,Ben Lovelace,M,26,England,Raw,M_OR_WPC,124.55,125,,,,,,180,190,200,,200,,,,,,200,B,
6,Antony Hepple,M,39,England,Raw,M_OR_WPC,122.4,125,,,,,,140,150,160,,160,,,,,,160,B,
7,Cesar Aragon,M,24,Mexico,Raw,M_OR_WPC,114.65,125,,,,,,115,125,-130,,125,,,,,,125,B,
1,Marcin Zwierzchowski,M,45,Poland,Raw,M_OR_WPC,130.15,140,,,,,,220,230,-240,,230,,,,,,230,B,
2,Cory Carter,M,33,USA,Raw,M_OR_WPC,136.76,140,,,,,,120,140,-155,,140,,,,,,140,B,
DQ,Sam Drozdzik,M,24,England,Raw,M_OR_WPC,144.2,140+,,,,,,-260,-260,-280,,,,,,,,,B,
1,Theo Boizou,M,14,France,Raw,M_TR_1_WPC,50.4,52,,,,,,65,-70,70,,70,,,,,,70,B,
1,Oliver Uff,M,15,England,Raw,M_TR_1_WPC,74.1,75,,,,,,80,-87.5,87.5,,87.5,,,,,,87.5,B,
1,Samuel Brown #4,M,14,England,Raw,M_TR_1_WPC,80.95,82.5,,,,,,65,72.5,-75,,72.5,,,,,,72.5,B,
1,Jordan Lorenz,M,16,Germany,Raw,M_TR_2_WPC,63.35,67.5,,,,,,-100,100,-105,,100,,,,,,100,B,
1,Thomas Goncalve,M,19,France,Raw,M_TR_3_WPC,80.85,82.5,,,,,,140,147.5,-155,,147.5,,,,,,147.5,B,
1,Helen Redhead,F,43,England,Raw,F_MR_1_WPC,85.02,90,,,,,,,,,,,145,-152.5,152.5,,152.5,152.5,D,
1,Susan Kaymakli,F,45,England,Raw,F_MR_2_WPC,70.6,75,,,,,,,,,,,120,130,-135,,130,130,D,
1,Belinda Ryder,F,52,Australia,Raw,F_MR_3_WPC,61.5,67.5,,,,,,,,,,,175,182.5,190,,190,190,D,
1,Marina Lourenzo,F,54,Portugal,Raw,F_MR_3_WPC,73.95,75,,,,,,,,,,,65,75,90,,90,90,D,
2,Amanda Walters,F,54,England,Raw,F_MR_3_WPC,62.1,67.5,,,,,,,,,,,100,105,-107.5,,105,105,D,
1,Sharon Graham,F,63,England,Raw,F_MR_5_WPC,65.95,67.5,,,,,,,,,,,140,150,155,,155,155,D,
1,Catherine Wass,F,66,England,Raw,F_MR_6_WPC,66.45,67.5,,,,,,,,,,,100,110,120,,120,120,D,
NS,Andre Agnes,F,36,France,Raw,F_OR_WPC,,,,,,,,,,,,,,,,,,,D,
NS,Marelyn Redjosetiko,F,30,France,Raw,F_OR_WPC,,,,,,,,,,,,,,,,,,,D,
1,Georgina Hodson,F,37,England,Raw,F_OR_WPC,55.75,56,,,,,,,,,,,115,130,145,,145,145,D,
2,Donika,F,24,India,Raw,F_OR_WPC,55.75,56,,,,,,,,,,,95,100,-105,,100,100,D,
1,Carola Benik,F,39,Germany,Raw,F_OR_WPC,58.15,60,,,,,,,,,,,140,147.5,155,,155,155,D,
1,Belinda Ryder,F,52,Australia,Raw,F_OR_WPC,61.5,67.5,,,,,,,,,,,175,182.5,190,,190,190,D,
2,Tatiana Violante,F,29,Italy,Raw,F_OR_WPC,62.7,67.5,,,,,,,,,,,155,167.5,-172.5,,167.5,167.5,D,
1,Emma Clayson,F,33,Australia,Raw,F_OR_WPC,79.8,82.5,,,,,,,,,,,180,192.5,-197.5,,192.5,192.5,D,
2,Natalie O'Shea,F,37,England,Raw,F_OR_WPC,78.35,82.5,,,,,,,,,,,180,,,,180,180,D,
1,Ayecia Bryant,F,37,USA,Raw,F_OR_WPC,86.55,90,,,,,,,,,,,152.5,162.5,165,,165,165,D,
1,Anokhi Patel,F,24,India,Raw,F_OR_WPC,109.3,110,,,,,,,,,,,115,125,135,,135,135,D,
1,Ishti Kaur,F,15,India,Raw,F_TR_1_WPC,41.65,44,,,,,,,,,,,80,90,-95,,90,90,D,
1,Julia Chowaniak,F,15,Poland,Raw,F_TR_1_WPC,65.9,67.5,,,,,,,,,,,75,80,82.5,,82.5,82.5,D,
NS,Ilkin Namazov,M,20,Azerbaijan,Raw,M_JR_WPC,,,,,,,,,,,,,,,,,,,D,
1,Mustafa Drilon,M,23,Italy,Raw,M_JR_WPC,79.95,82.5,,,,,,,,,,,-250,250,,,250,250,D,
1,Thomas Pearson,M,23,England,Raw,M_JR_WPC,124.35,125,,,,,,,,,,,220,230,240,,240,240,D,
NS,Jeron Roberson,M,41,USA,Raw,M_MR_1_WPC,,,,,,,,,,,,,,,,,,,D,
NS,Neil McPartland,M,40,England,Raw,M_MR_1_WPC,,,,,,,,,,,,,,,,,,,D,
1,Romesh Tenuwera,M,41,England,Raw,M_MR_1_WPC,50.3,52,,,,,,,,,,,155,165,-170,,165,165,D,
1,Jason Pearson #2,M,43,England,Raw,M_MR_1_WPC,67.25,67.5,,,,,,,,,,,152.5,-157.5,,,152.5,152.5,D,
1,Darren Robertson,M,40,England,Raw,M_MR_1_WPC,74.1,75,,,,,,,,,,,207.5,217.5,227.5,,227.5,227.5,D,
1,Maël Le Paven,M,43,France,Raw,M_MR_1_WPC,80.9,82.5,,,,,,,,,,,-247.5,247.5,257.5,-276,257.5,257.5,D,
1,Omar Ciaburri,M,43,Italy,Raw,M_MR_1_WPC,107.8,110,,,,,,,,,,,270,295,300,,300,300,D,
2,Mariusz Bartołowicz,M,43,Poland,Raw,M_MR_1_WPC,109.65,110,,,,,,,,,,,280,292.5,-300,,292.5,292.5,D,
3,Josh Brown #2,M,40,Australia,Raw,M_MR_1_WPC,101.4,110,,,,,,,,,,,270,290,-305,,290,290,D,
4,Michael Buda,M,42,Australia,Raw,M_MR_1_WPC,103.7,110,,,,,,,,,,,190,205,215,,215,215,D,
1,David Cross,M,43,South Africa,Raw,M_MR_1_WPC,115.2,125,,,,,,,,,,,260,270,-280,,270,270,D,
2,Mark Caroli,M,41,England,Raw,M_MR_1_WPC,118.55,125,,,,,,,,,,,245,255,265,,265,265,D,
1,Frank Rodriguez #1,M,40,England,Raw,M_MR_1_WPC,142.4,140+,,,,,,,,,,,330,350,-370,,350,350,D,
NS,Darryl Triance,M,47,England,Raw,M_MR_2_WPC,,,,,,,,,,,,,,,,,,,D,
NS,Vugar Namazov,M,45,Azerbaijan,Raw,M_MR_2_WPC,,,,,,,,,,,,,,,,,,,D,
1,Parampreet Singh,M,45,India,Raw,M_MR_2_WPC,87.3,90,,,,,,,,,,,190,-200,-200,,190,190,D,
1,Marc Michalon,M,45,France,Raw,M_MR_2_WPC,99.9,100,,,,,,,,,,,270,280,-293,,280,280,D,
1,Teppo Koskinen,M,50,Finland,Raw,M_MR_3_WPC,99,100,,,,,,,,,,,220,235,250,,250,250,D,
1,Dean Dyble,M,52,England,Raw,M_MR_3_WPC,108.3,110,,,,,,,,,,,265,-277.5,-282.5,,265,265,D,
2,Dominique Nussbaum,M,52,France,Raw,M_MR_3_WPC,109,110,,,,,,,,,,,220,230,-240,,230,230,D,
1,Jason Swalwell,M,52,England,Raw,M_MR_3_WPC,121.95,125,,,,,,,,,,,220,250,275,,275,275,D,
NS,Mike Towers,M,57,England,Raw,M_MR_4_WPC,,,,,,,,,,,,,,,,,,,D,
NS,Remy-Zephir Olivier,M,55,France,Raw,M_MR_4_WPC,,,,,,,,,,,,,,,,,,,D,
NS,Verrol Skerritt,M,55,England,Raw,M_MR_4_WPC,,,,,,,,,,,,,,,,,,,D,
1,Sean McCarthy #1,M,55,England,Raw,M_MR_4_WPC,89,90,,,,,,,,,,,225,245,248,,248,248,D,
2,Stuart Hamilton,M,59,England,Raw,M_MR_4_WPC,87.7,90,,,,,,,,,,,200,225,230,,230,230,D,
1,Timothy Sparkes,M,56,USA,Raw,M_MR_4_WPC,98.65,100,,,,,,,,,,,250,-292.5,-292.5,,250,250,D,
1,Fred Pommerenke,M,61,Germany,Raw,M_MR_5_WPC,79.5,82.5,,,,,,,,,,,160,165,,,165,165,D,
1,Terry Dvorak,M,60,USA,Raw,M_MR_5_WPC,128.3,140,,,,,,,,,,,182.5,202.5,222.5,,222.5,222.5,D,
1,Kazimierz Michael Forys,M,78,Germany,Raw,M_MR_8_WPC,95.25,100,,,,,,,,,,,170,190,201,,201,201,D,
NS,Darryl Triance,M,47,England,Raw,M_OR_WPC,,,,,,,,,,,,,,,,,,,D,
NS,Louis Dario,M,26,France,Raw,M_OR_WPC,,,,,,,,,,,,,,,,,,,D,
NS,Vugar Namazov,M,45,Azerbaijan,Raw,M_OR_WPC,,,,,,,,,,,,,,,,,,,D,
1,Romesh Tenuwera,M,41,England,Raw,M_OR_WPC,50.3,52,,,,,,,,,,,155,165,-170,,165,165,D,
1,Jason Pearson #2,M,43,England,Raw,M_OR_WPC,67.25,67.5,,,,,,,,,,,152.5,-157.5,,,152.5,152.5,D,
1,Krzysztof Szlachetka,M,34,Poland,Raw,M_OR_WPC,81.95,82.5,,,,,,,,,,,280,-300,-300,,280,280,D,
2,Maël Le Paven,M,43,France,Raw,M_OR_WPC,80.9,82.5,,,,,,,,,,,-247.5,247.5,257.5,-276,257.5,257.5,D,
3,Dario Sparacino,M,30,Italy,Raw,M_OR_WPC,81.9,82.5,,,,,,,,,,,250,-255,-255,,250,250,D,
1,Jordan Leader,M,33,England,Raw,M_OR_WPC,87.85,90,,,,,,,,,,,275,300,-302.5,,300,300,D,
2,Janis Ratnieks,M,38,Latvia,Raw,M_OR_WPC,87.75,90,,,,,,,,,,,280,-290,-290,,280,280,D,
3,Daniel Jagódka,M,29,Poland,Raw,M_OR_WPC,88.95,90,,,,,,,,,,,240,250,260,,260,260,D,
4,Sunit Gautam,M,24,India,Raw,M_OR_WPC,87.55,90,,,,,,,,,,,165,170,180,,180,180,D,
1,Jordan Gusto,M,31,France,Raw,M_OR_WPC,98.9,100,,,,,,,,,,,340,-360,,,340,340,D,
2,Johan Frisk,M,32,Finland,Raw,M_OR_WPC,99.6,100,,,,,,,,,,,275,-295,-295,,275,275,D,
3,Timothy Sparkes,M,56,USA,Raw,M_OR_WPC,98.65,100,,,,,,,,,,,250,-292.5,-292.5,,250,250,D,
1,Luke Brennan,M,29,Australia,Raw,M_OR_WPC,108.4,110,,,,,,,,,,,330,350,-360,,350,350,D,
2,Chris Graham,M,30,England,Raw,M_OR_WPC,109.7,110,,,,,,,,,,,320,335,-345,,335,335,D,
3,Przemysław Rybacki,M,38,Poland,Raw,M_OR_WPC,109.05,110,,,,,,,,,,,265,280,295,,295,295,D,
4,David Berrueco,M,30,Portugal,Raw,M_OR_WPC,103.45,110,,,,,,,,,,,260,280,292.5,,292.5,292.5,D,
5,David-John Williamson,M,34,England,Raw,M_OR_WPC,109.3,110,,,,,,,,,,,255,270,-285,,270,270,D,
6,Jamie Cougan,M,36,Australia,Raw,M_OR_WPC,107.1,110,,,,,,,,,,,235,250,-260,,250,250,D,
1,Ben Lovelace,M,26,England,Raw,M_OR_WPC,124.55,125,,,,,,,,,,,300,-315,-315,,300,300,D,
2,Antony Hepple,M,39,England,Raw,M_OR_WPC,122.4,125,,,,,,,,,,,282.5,-300,-300,,282.5,282.5,D,
3,Cesar Aragon,M,24,Mexico,Raw,M_OR_WPC,114.65,125,,,,,,,,,,,225,267.5,275,,275,275,D,
4,Samuel Mason,M,25,England,Raw,M_OR_WPC,122.35,125,,,,,,,,,,,240,265,272.5,,272.5,272.5,D,
5,Jonathan Nelson,M,41,Australia,Raw,M_OR_WPC,116.05,125,,,,,,,,,,,270,-300,-300,,270,270,D,
1,Cory Carter,M,33,USA,Raw,M_OR_WPC,136.76,140,,,,,,,,,,,175,217.5,227.5,,227.5,227.5,D,
1,Theo Boizou,M,14,France,Raw,M_TR_1_WPC,50.4,52,,,,,,,,,,,120,135,-145.5,,135,135,D,
1,Luan Herbst,M,15,Germany,Raw,M_TR_1_WPC,73.3,75,,,,,,,,,,,180,190,200,210,200,200,D,
2,Oliver Uff,M,15,England,Raw,M_TR_1_WPC,74.1,75,,,,,,,,,,,145,162.5,-167.5,,162.5,162.5,D,
1,Samuel Brown #4,M,14,England,Raw,M_TR_1_WPC,80.95,82.5,,,,,,,,,,,137.5,-150,152.5,,152.5,152.5,D,
1,Calum Horner,M,17,England,Raw,M_TR_2_WPC,73.75,75,,,,,,,,,,,167.5,177.5,185,,185,185,D,
1,Matthew Philpott Batista,M,16,Ireland,Raw,M_TR_2_WPC,100.1,110,,,,,,,,,,,220,230,240,,240,240,D,
2,Abraham England,M,17,England,Raw,M_TR_2_WPC,103.25,110,,,,,,,,,,,180,-200,-200,,180,180,D,
1,Paul Gömann,M,18,Germany,Raw,M_TR_3_WPC,82.05,82.5,,,,,,,,,,,240,255,260,-270,260,260,D,
1,Devrath Singh,M,18,India,Raw,M_TR_3_WPC,94.3,100,,,,,,,,,,,260,-285.5,-285.5,,260,260,D,
2,Jack Jodrell,M,18,England,Raw,M_TR_3_WPC,94,100,,,,,,,,,,,220,-240,-240,,220,220,D,
