Division,WeightClassKg,Place,Name,Team,BodyweightKg,Best3SquatKg,Best3BenchKg,Best3DeadliftKg,TotalKg,Equipment,Event,Sex
Boys,51.71,1,Oscar Martel,Laredo United South,49.53,120.2,74.84,122.47,317.51,Single-ply,SBD,M
Boys,51.71,2,Everardo Garcia,Roma,50.26,113.4,70.31,133.81,317.51,Single-ply,SBD,M
Boys,51.71,3,Eddie Macias,Laredo Nixon,50.35,120.2,74.84,108.86,303.91,Single-ply,SBD,M
Boys,51.71,4,Emil Pescador,Laredo Cigarroa,50.98,106.59,70.31,106.59,283.5,Single-ply,SBD,M
Boys,51.71,5,Rolando Flores,Roma,51.53,106.59,58.97,117.93,283.5,Single-ply,SBD,M
Boys,51.71,6,Luis Martinez,Laredo Martin,50.53,113.4,47.63,106.59,267.62,Single-ply,SBD,M
Boys,55.79,1,Vince Ochoa,Dilley,55.52,145.15,81.65,138.35,365.14,Single-ply,SBD,M
Boys,55.79,DQ,AJ Perez,Santa Gertrudis Academy,53.98,,,,,Single-ply,SBD,M
Boys,55.79,DQ,Johnathan Gomez,Laredo Cigarroa,54.07,95.25,,,,Single-ply,SBD,M
Boys,59.87,1,Mario Saldivar Jr,Laredo Alexander,58.88,165.56,79.38,183.7,428.64,Single-ply,SBD,M
Boys,59.87,2,Jonathan Diaz,Laredo Martin,58.97,156.49,74.84,165.56,396.89,Single-ply,SBD,M
Boys,59.87,3,Jose Alcorta,Laredo United South,59.87,147.42,90.72,156.49,394.63,Single-ply,SBD,M
Boys,59.87,4,Ramiro Rangel,Laredo Cigarroa,58.24,142.88,74.84,165.56,383.29,Single-ply,SBD,M
Boys,59.87,5,Tony De La Rosa,Santa Gertrudis Academy,59.42,108.86,70.31,140.61,319.78,Single-ply,SBD,M
Boys,59.87,6,Joseph Hernandez #1,Laredo Martin,59.87,133.81,56.7,124.74,315.25,Single-ply,SBD,M
Boys,59.87,7,Rolando Aguilar,Laredo United,56.52,106.59,61.23,120.2,288.03,Single-ply,SBD,M
Boys,59.87,8,Matthew Ruiz,Laredo Nixon,58.6,90.72,68.04,117.93,276.69,Single-ply,SBD,M
Boys,59.87,9,Troy Banda,Laredo Nixon,59.87,102.06,63.5,108.86,274.42,Single-ply,SBD,M
Boys,59.87,10,Ryan Elizondo,Santa Gertrudis Academy,58.06,83.91,61.23,113.4,258.55,Single-ply,SBD,M
Boys,67.13,1,Josue Tobias,Laredo Nixon,66.32,208.65,129.27,226.8,564.72,Single-ply,SBD,M
Boys,67.13,2,Miguel Luna,Laredo Johnson,66.13,165.56,106.59,183.7,455.86,Single-ply,SBD,M
Boys,67.13,3,Jimmy Jiminez,Laredo United South,63.32,142.88,88.45,185.97,417.3,Single-ply,SBD,M
Boys,67.13,4,Albert Betancourt,Laredo Johnson,66.41,156.49,86.18,170.1,412.77,Single-ply,SBD,M
Boys,67.13,5,John Molina,Laredo Johnson,67.13,147.42,72.57,183.7,403.7,Single-ply,SBD,M
Boys,67.13,6,Ryan Villareal,Santa Gertrudis Academy,66.68,131.54,92.99,151.95,376.48,Single-ply,SBD,M
Boys,67.13,7,Anthony Aranda,Dilley,65.68,131.54,79.38,147.42,358.34,Single-ply,SBD,M
Boys,67.13,8,Adrian Maldonado,Roma,62.69,124.74,86.18,129.27,340.19,Single-ply,SBD,M
Boys,67.13,9,Julian Alvarado,Laredo United,60.87,122.47,72.57,136.08,331.12,Single-ply,SBD,M
Boys,67.13,10,Lloyd Soto,Laredo United,65.14,111.13,74.84,145.15,331.12,Single-ply,SBD,M
Boys,67.13,11,Pierce Ramirez,Dilley,66.59,145.15,65.77,113.4,324.32,Single-ply,SBD,M
Boys,67.13,12,Albert Laurel Jr,Laredo Alexander,60.78,124.74,65.77,129.27,319.78,Single-ply,SBD,M
Boys,74.84,1,Nick Rodriguerz,Dilley,69.13,183.7,106.59,197.31,487.61,Single-ply,SBD,M
Boys,74.84,2,Juan Gonzalez,Laredo United South,74.75,174.63,108.86,183.7,467.2,Single-ply,SBD,M
Boys,74.84,3,Jose Moreno,Roma,68.95,174.63,99.79,176.9,451.32,Single-ply,SBD,M
Boys,74.84,4,Federico Mendez,Laredo Martin,73.48,165.56,102.06,161.03,428.64,Single-ply,SBD,M
Boys,74.84,5,Joseph Lozano,Laredo Nixon,71.67,156.49,90.72,174.63,421.84,Single-ply,SBD,M
Boys,74.84,6,Damian Garza,Roma,70.49,147.42,102.06,170.1,419.57,Single-ply,SBD,M
Boys,74.84,7,Jakoby Torres,Laredo Alexander,74.03,147.42,95.25,163.29,405.97,Single-ply,SBD,M
Boys,74.84,8,Seth Mesa,Santa Gertrudis Academy,72.12,145.15,106.59,147.42,399.16,Single-ply,SBD,M
Boys,74.84,9,Jacinto Mata,Laredo Johnson,72.76,136.08,81.65,172.37,390.09,Single-ply,SBD,M
Boys,74.84,10,Juan Gonzalez,Laredo Johnson,68.95,158.76,83.91,136.08,378.75,Single-ply,SBD,M
Boys,74.84,11,Derek Mendiola,Laredo Johnson,70.4,124.74,74.84,158.76,358.34,Single-ply,SBD,M
Boys,74.84,12,Andrew Gutierrez,Laredo United South,70.76,74.84,77.11,149.69,301.64,Single-ply,SBD,M
Boys,74.84,13,Ramon Rivera,Laredo Cigarroa,69.85,74.84,47.63,99.79,222.26,Single-ply,SBD,M
Boys,74.84,DQ,Rodolfo Garcia,Laredo Martin,70.31,115.67,58.97,,,Single-ply,SBD,M
Boys,74.84,DQ,Jesus Pamerin,Laredo Nixon,73.12,158.76,,,,Single-ply,SBD,M
Boys,82.1,1,Leo Benavides,Laredo Johnson,82.1,204.12,120.2,183.7,508.02,Single-ply,SBD,M
Boys,82.1,2,Ismael Espinoza,Laredo Johnson,82.1,181.44,83.91,179.17,444.52,Single-ply,SBD,M
Boys,82.1,3,Jaime Torres,Laredo Martin,79.56,165.56,83.91,183.7,433.18,Single-ply,SBD,M
Boys,82.1,4,Mario Valdez,Laredo Nixon,82.1,161.03,86.18,151.95,399.16,Single-ply,SBD,M
Boys,82.1,5,Victor Gonzalez,Laredo Cigarroa,76.66,140.61,90.72,142.88,374.21,Single-ply,SBD,M
Boys,82.1,6,Jonathan Blanco,Laredo Martin,81.19,124.74,83.91,165.56,374.21,Single-ply,SBD,M
Boys,82.1,7,Adtom Solis,Laredo Cigarroa,80.2,136.08,83.91,142.88,362.87,Single-ply,SBD,M
Boys,82.1,8,Jacob Garcia,Laredo United,79.11,120.2,72.57,131.54,324.32,Single-ply,SBD,M
Boys,89.81,1,Marco Munoz,Laredo Nixon,87.63,219.99,102.06,226.8,548.85,Single-ply,SBD,M
Boys,89.81,2,Jesus Salazar,Laredo Cigarroa,86.55,165.56,115.67,210.92,492.15,Single-ply,SBD,M
Boys,89.81,3,Marty Trevino,Dilley,87.91,192.78,102.06,183.7,478.54,Single-ply,SBD,M
Boys,89.81,4,Marco Briones,Laredo United South,84.91,167.83,124.74,183.7,476.27,Single-ply,SBD,M
Boys,89.81,5,Luis Aguirre,Laredo Martin,89.36,165.56,104.33,183.7,453.59,Single-ply,SBD,M
Boys,89.81,6,Oscar Monroy,Laredo Nixon,89.81,158.76,108.86,176.9,444.52,Single-ply,SBD,M
Boys,89.81,7,Joey Rodriguez,Laredo Nixon,89.81,151.95,95.25,167.83,415.04,Single-ply,SBD,M
Boys,89.81,8,Juan Martinez,Dilley,84.28,129.27,74.84,136.08,340.19,Single-ply,SBD,M
Boys,99.79,1,Joseph Jimenez,Laredo United South,94.53,215.46,142.88,204.12,562.45,Single-ply,SBD,M
Boys,99.79,2,Axel Martinez,Roma,99.7,172.37,113.4,170.1,455.86,Single-ply,SBD,M
Boys,99.79,3,Luis Canales,Laredo Alexander,99.34,158.76,95.25,192.78,446.79,Single-ply,SBD,M
Boys,99.79,4,Kristian Korrodi,Laredo Alexander,99.25,158.76,102.06,183.7,444.52,Single-ply,SBD,M
Boys,99.79,5,David Rivera #2,Laredo Alexander,94.26,136.08,92.99,183.7,412.77,Single-ply,SBD,M
Boys,99.79,6,Brandon Brondo,Laredo United,95.16,142.88,102.06,167.83,412.77,Single-ply,SBD,M
Boys,99.79,7,Jesse Hernandez,Laredo Alexander,94.17,142.88,97.52,161.03,401.43,Single-ply,SBD,M
Boys,99.79,8,Brock Roscover,Laredo United,94.98,124.74,108.86,163.29,396.89,Single-ply,SBD,M
Boys,99.79,9,Luis Jasso,Laredo United,92.44,124.74,72.57,145.15,342.46,Single-ply,SBD,M
Boys,99.79,DQ,Christian Gonzalez,Laredo Nixon,97.61,163.29,,,,Single-ply,SBD,M
Boys,109.77,1,Francisco Torrecilla,Laredo Nixon,109.13,244.94,122.47,249.48,616.89,Single-ply,SBD,M
Boys,109.77,2,Abel Mendoza,Laredo Nixon,105.32,210.92,140.61,201.85,553.38,Single-ply,SBD,M
Boys,109.77,3,Diego Meza,Laredo United,105.14,165.56,117.93,185.97,469.47,Single-ply,SBD,M
Boys,109.77,4,Mathew Vasquez,Laredo Alexander,109.77,151.95,99.79,190.51,442.25,Single-ply,SBD,M
Boys,109.77,5,Carlos Garza,Roma,107.5,170.1,108.86,158.76,437.72,Single-ply,SBD,M
Boys,109.77,6,Juan Davila,Laredo United South,104.14,151.95,95.25,183.7,430.91,Single-ply,SBD,M
Boys,109.77,7,Danny Villezcas,Laredo United,101.88,115.67,83.91,170.1,369.68,Single-ply,SBD,M
Boys,109.77,8,Joseph Flores,Laredo United,102.51,133.81,61.23,161.03,356.07,Single-ply,SBD,M
Boys,124.74,1,Gabino Barrera,Roma,119.29,260.82,140.61,210.92,612.35,Single-ply,SBD,M
Boys,124.74,2,Marco Prado,Laredo Cigarroa,120.2,219.99,113.4,210.92,544.31,Single-ply,SBD,M
Boys,124.74,3,Myriel Jaramillo,Laredo Johnson,115.76,226.8,111.13,183.7,521.63,Single-ply,SBD,M
Boys,124.74,4,Joseph Gomez,Laredo United,113.58,190.51,127.01,197.31,514.83,Single-ply,SBD,M
Boys,124.74,5,Jorge Gutierrez,Laredo Cigarroa,116.57,183.7,92.99,217.72,494.42,Single-ply,SBD,M
Boys,124.74,6,Anthony Alcorta,Laredo Martin,118.93,229.06,83.91,174.63,487.61,Single-ply,SBD,M
Boys,124.74,7,Carlos Silva,Laredo Martin,114.31,201.85,83.91,183.7,469.47,Single-ply,SBD,M
Boys,124.74,8,Chris Iruegas,Laredo Alexander,120.2,158.76,108.86,183.7,451.32,Single-ply,SBD,M
Boys,124.74,9,Jeff Puig,Laredo Alexander,112.49,138.35,92.99,154.22,385.55,Single-ply,SBD,M
Boys,124.74,10,Eleazar Salvador,Laredo United South,114.67,145.15,104.33,158.76,408.23,Single-ply,SBD,M
Boys,124.74+,1,Jose Salvador,Laredo United South,138.62,219.99,147.42,219.99,587.4,Single-ply,SBD,M
Boys,124.74+,2,Reynaldo Martinez,Laredo Johnson,129.91,238.14,108.86,215.46,562.45,Single-ply,SBD,M
Boys,124.74+,3,Luis Barron,Laredo Johnson,128.91,229.06,124.74,195.04,548.85,Single-ply,SBD,M
Boys,124.74+,4,Juan Montoya,Laredo Alexander,147.42,158.76,102.06,174.63,435.45,Single-ply,SBD,M
