Division,WeightClassKg,Place,Name,Team,BodyweightKg,Best3SquatKg,Best3BenchKg,Best3DeadliftKg,TotalKg,Equipment,Event,Sex,BirthDate
Boys,59.87,1,Jhoan Menjivar,Plains,59.87,145.15,86.18,147.42,378.75,Single-ply,SBD,M,
Boys,59.87,2,Jose Franco,Denver City,59.42,113.4,72.57,129.27,315.25,Single-ply,SBD,M,
Boys,59.87,3,Kyler Neill,Wellman-Union,58.97,97.52,56.7,113.4,267.62,Single-ply,SBD,M,
Boys,59.87,4,Marcus Gonzales,Plains,56.25,88.45,54.43,122.47,265.35,Single-ply,SBD,M,
Boys,67.13,1,Baltazar Castillo,Plains,67.13,156.49,95.25,136.08,387.82,Single-ply,SBD,M,
Boys,67.13,2,Daxston Swimmer,Plains,62.14,131.54,81.65,136.08,349.27,Single-ply,SBD,M,
Boys,67.13,3,Richard Maldonado,Plains,63.5,120.2,79.38,120.2,319.78,Single-ply,SBD,M,
Boys,67.13,4,Marcus Aguilar,Seminole,62.87,115.67,61.23,129.27,306.17,Single-ply,SBD,M,
Boys,67.13,5,Brayden Gonzalez,Denver City,65.32,106.59,68.04,129.27,303.91,Single-ply,SBD,M,
Boys,67.13,6,Alec Martinez,Denver City,62.14,106.59,68.04,120.2,294.84,Single-ply,SBD,M,
Boys,67.13,7,Robert Ramirez,Wellman-Union,65.77,99.79,58.97,122.47,281.23,Single-ply,SBD,M,
Boys,67.13,8,Gael Lozano,Plains,66.22,92.99,49.9,115.67,258.55,Single-ply,SBD,M,
Boys,74.84,1,Jeremiah Talamantes,Seminole,74.39,183.7,95.25,183.7,462.66,Single-ply,SBD,M,
Boys,74.84,2,Logan Jennings,Seminole,74.39,183.7,83.91,165.56,433.18,Single-ply,SBD,M,
Boys,74.84,3,Nelson Avila,Plains,73.03,151.95,95.25,163.29,410.5,Single-ply,SBD,M,
Boys,74.84,4,Derrick Valdespino,Denver City,68.95,174.63,95.25,129.27,399.16,Single-ply,SBD,M,
Boys,74.84,5,Austin Vanriper,Seminole,73.94,142.88,90.72,151.95,385.55,Single-ply,SBD,M,
Boys,74.84,6,Jonah Escalante,Denver City,68.95,147.42,83.91,147.42,378.75,Single-ply,SBD,M,
Boys,74.84,7,Dillon Gretch,Seminole,69.4,145.15,72.57,161.03,378.75,Single-ply,SBD,M,
Boys,74.84,8,Zach Mendez,Plains,74.84,115.67,86.18,147.42,349.27,Single-ply,SBD,M,
Boys,74.84,9,Blake Wilson,Plains,71.67,115.67,56.7,104.33,276.69,Single-ply,SBD,M,
Boys,82.1,1,Ivan Trinidad,Denver City,80.74,170.1,124.74,188.24,483.08,Single-ply,SBD,M,
Boys,82.1,2,Harrison Weeks,Plains,82.1,181.44,92.99,174.63,449.06,Single-ply,SBD,M,
Boys,82.1,3,Jonathan Badillo,Plains,82.1,147.42,92.99,151.95,392.36,Single-ply,SBD,M,
Boys,82.1,4,Keagon Dominguez,Wellman-Union,81.65,147.42,79.38,140.61,367.41,Single-ply,SBD,M,
Boys,82.1,5,Jd O'Briant,Wellman-Union,81.65,136.08,70.31,158.76,365.14,Single-ply,SBD,M,
Boys,82.1,6,Daniel Carrizales,Seminole,75.3,102.06,65.77,138.35,306.17,Single-ply,SBD,M,
Boys,89.81,1,Zach Anthony,Lubbock Trinity Christian Schools,87.09,233.6,142.88,229.06,605.55,Single-ply,SBD,M,
Boys,89.81,2,Anthony Unger,Wellman-Union,86.18,172.37,113.4,174.63,460.4,Single-ply,SBD,M,
Boys,89.81,3,Daniel Vasquez,Denver City,89.36,149.69,83.91,142.88,376.48,Single-ply,SBD,M,
Boys,99.79,1,Carson Little,Denver City,99.34,201.85,154.22,208.65,564.72,Single-ply,SBD,M,
Boys,99.79,2,Marquez Garcia,Denver City,93.89,190.51,115.67,158.76,464.93,Single-ply,SBD,M,
Boys,109.77,1,Logan Castaneda,Meadow,109.77,181.44,108.86,201.85,492.15,Single-ply,SBD,M,
Boys,109.77,2,Angel Lozano,Plains,105.69,172.37,115.67,183.7,471.74,Single-ply,SBD,M,
Boys,109.77,3,Angel Orona,Denver City,104.78,163.29,92.99,163.29,419.57,Single-ply,SBD,M,
Boys,109.77,4,Jake Sumrow,Seminole,106.14,151.95,83.91,165.56,401.43,Single-ply,SBD,M,
Boys,109.77,5,Ryan Sinclair #2,Seminole,106.59,142.88,72.57,142.88,358.34,Single-ply,SBD,M,
Boys,109.77,6,Jackson Campbell,Seminole,107.05,83.91,47.63,108.86,240.4,Single-ply,SBD,M,
Boys,109.77,DQ,Julian Madrid,Denver City,108.41,174.63,,,,Single-ply,SBD,M,
Boys,109.77,DQ,Kade Pope,Denver City,106.14,192.78,106.59,190.51,,Single-ply,SBD,M,
Boys,109.77,DQ,Alex Wooten,Seminole,100.7,276.69,170.1,265.35,,Single-ply,SBD,M,
Boys,124.74,1,Jesus Trabado,Denver City,113.4,210.92,147.42,183.7,542.04,Single-ply,SBD,M,
Boys,124.74,DQ,Manny Gonzalez,Denver City,110.22,213.19,,,,Single-ply,SBD,M,
Boys,139.71,1,Niko Castaneda,Meadow,139.71,283.5,165.56,249.48,698.53,Single-ply,SBD,M,
Boys,139.71,DQ,Hunter Mastin,Lubbock Trinity Christian Schools,127.01,,,,,Single-ply,SBD,M,
Boys,139.71+,1,Julius Alaniz,Wellman-Union,140.61,249.48,131.54,204.12,585.13,Single-ply,SBD,M,
