Place,Name,Sex,Event,Division,WeightClassKg,Equipment,BirthYear,Team,State,BodyweightKg,Squat1Kg,Squat2Kg,Squat3Kg,Best3SquatKg,Bench1Kg,Bench2Kg,Bench3Kg,Best3BenchKg,Deadlift1Kg,Deadlift2Kg,Deadlift3Kg,Best3DeadliftKg,TotalKg,Age,BirthDate
1,Sahara Bean,F,SBD,FR-Jr,63,Raw,2000,,CA,58.7,97.5,100,105,105,50,-55,-55,50,102.5,107.5,117.5,117.5,272.5,,
1,Katia Gonzalez,F,SBD,FR-Jr,76,Raw,1999,,CA,72.7,107.5,110,112.5,112.5,42.5,45,50,50,142.5,147.5,-150,147.5,310,,
DQ,Maraiah Guerrero,F,SBD,FR-Jr,84,Raw,1999,,CA,82.6,-115,-125,-125,,-60,-60,65,65,115,120,-127.5,120,,,
1,Veronica Vasquez,F,SBD,FR-O,57,Raw,1991,,CA,53.9,112.5,122.5,130,130,70,80,-90,80,135,147.5,155,155,365,,
1,Daytona Hernandez,F,SBD,FR-O,69,Raw,1997,,CA,68.7,120,-130,-137.5,120,62.5,-65,-65,62.5,-145,145,152.5,152.5,335,,
2,Kristen Ruiz,F,SBD,FR-O,69,Raw,1996,,CA,65.7,105,115,-120,115,55,62.5,-67.5,62.5,130,142.5,150,150,327.5,,
3,Megan Snyder,F,SBD,FR-O,69,Raw,1991,,CA,67.5,92.5,100,105,105,55,60,-65,60,122.5,132.5,140,140,305,,
1,Cherie Newman,F,SBD,FR-O,76,Raw,1990,,CA,73.8,147.5,160,-162.5,160,67.5,72.5,77.5,77.5,165,175,-182.5,175,412.5,,
1,Destiny Shipley,F,SBD,FR-O,84,Raw,1994,,CA,81.05,115,122.5,-137.5,122.5,60,65,70,70,142.5,150,160,160,352.5,,
1,Kim Jackson #2,F,SBD,FR-O,84+,Raw,1991,,CA,98.3,110,120,127.5,127.5,55,62.5,70,70,125,135,142.5,142.5,340,,
1,Kaedin Balash,M,SBD,MR-Jr,74,Raw,2000,,CA,72.9,200,210,-220,210,102.5,107.5,112.5,112.5,227.5,237.5,242.5,242.5,565,,
1,Asher Johnson,M,SBD,MR-Jr,83,Raw,1999,,CA,82.2,212.5,222.5,230,230,150,-157.5,157.5,157.5,240,250,257.5,257.5,645,,
1,Mauricio Salazar,M,SBD,MR-Jr,93,Raw,2000,Flexx Training Systems,CA,92.95,250,262.5,272.5,272.5,120,130,-135,130,260,275,285,285,687.5,,
2,Adrian Ramirez-Vasquez,M,SBD,MR-Jr,93,Raw,2000,,CA,90.3,227.5,232.5,237.5,237.5,145,152.5,-157.5,152.5,230,237.5,245,245,635,,
3,Ricky Romero,M,SBD,MR-Jr,93,Raw,2001,,CA,92.25,192.5,202.5,-212.5,202.5,155,162.5,167.5,167.5,182.5,205,225,225,595,,
4,Omar Ramirez,M,SBD,MR-Jr,93,Raw,1998,,CA,83.25,147.5,157.5,167.5,167.5,90,100,110,110,150,165,177.5,177.5,455,,
1,Albert Avila,M,SBD,MR-Jr,105,Raw,2001,,CA,104.35,235,247.5,252.5,252.5,140,147.5,152.5,152.5,207.5,220,232.5,232.5,637.5,,
2,Jonathan Tapia,M,SBD,MR-Jr,105,Raw,1999,,CA,102.35,170,175,-180,175,115,120,,120,165,170,175,175,470,,
1,Steve Babcock,M,SBD,MR-M1a,93,Raw,1981,,CA,88.85,190,197.5,202.5,202.5,132.5,-135,-135,132.5,-245,245,-250,245,580,,
1,Christopher Greene,M,SBD,MR-M1a,105,Raw,1980,,CA,104.4,262.5,272.5,287.5,287.5,197.5,207.5,-215,207.5,280,297.5,307.5,307.5,802.5,,
1,Darren Ferrer,M,SBD,MR-O,66,Raw,1994,,CA,65.8,195,205,212.5,212.5,130,135,-142.5,135,215,232.5,242.5,242.5,590,,
1,Romy Jay Gallanosa,M,SBD,MR-O,74,Raw,1997,,CA,66.7,165,177.5,187.5,187.5,140,147.5,150,150,240,250,-265,250,587.5,,
2,Jonathan Kim,M,SBD,MR-O,74,Raw,1993,Flexx Training Systems,CA,73.7,185,195,200,200,132.5,140,142.5,142.5,215,225,232.5,232.5,575,,
3,Charlie San Juan Jr,M,SBD,MR-O,74,Raw,1992,,CA,74,160,170,182.5,182.5,102.5,110,-122.5,110,192.5,202.5,215,215,507.5,,
4,Noel Santi Alegado,M,SBD,MR-O,74,Raw,1987,,CA,72.9,135,142.5,147.5,147.5,87.5,92.5,-97.5,92.5,182.5,187.5,195,195,435,,
5,Joshua Cary,M,SBD,MR-O,74,Raw,1992,,CA,73.6,120,130,-140,130,110,115,117.5,117.5,170,175,177.5,177.5,425,,
1,Victor Cabali,M,SBD,MR-O,83,Raw,1992,Flexx Training Systems,CA,82.8,210,222.5,232.5,232.5,150,157.5,162.5,162.5,270,287.5,300,300,695,,
2,Hilario Alfaro,M,SBD,MR-O,83,Raw,1993,,CA,82.7,207.5,215,-225,215,165,-170,-170,165,-250,250,262.5,262.5,642.5,,
3,Brandon Avila,M,SBD,MR-O,83,Raw,1994,Flexx Training Systems,CA,82.8,192.5,205,215,215,122.5,130,135,135,217.5,230,240,240,590,,
4,Robbie Gonzalez,M,SBD,MR-O,83,Raw,1993,,CA,80.1,-182.5,182.5,200,200,-120,142.5,-155,142.5,200,220,240,240,582.5,,
5,Peter Ramos,M,SBD,MR-O,83,Raw,1992,,CA,81.9,170,180,185,185,140,145,,145,220,-225,,220,550,,
6,Jonah Asuncion,M,SBD,MR-O,83,Raw,1997,,CA,82.9,125,137.5,152.5,152.5,90,97.5,100,100,170,182.5,197.5,197.5,450,,
DQ,Keng Vang,M,SBD,MR-O,83,Raw,1993,,CA,82.25,182.5,195,-205,195,,,,,,,,,,,
1,Arnel Lamigo,M,SBD,MR-O,93,Raw,1995,,CA,86.9,240,250,260,260,140,150,-155,150,252.5,265,272.5,272.5,682.5,,
2,Ricky Romero,M,SBD,MR-O,93,Raw,2001,,CA,92.25,192.5,202.5,-212.5,202.5,155,162.5,167.5,167.5,182.5,205,225,225,595,,
3,Steve Babcock,M,SBD,MR-O,93,Raw,1981,,CA,88.85,190,197.5,202.5,202.5,132.5,-135,-135,132.5,-245,245,-250,245,580,,
DQ,Christopher Fassett,M,SBD,MR-O,93,Raw,1996,,CA,91.75,200,210,220,220,-157.5,-157.5,-157.5,,242.5,-255,,242.5,,,
1,Zack Scott #1,M,SBD,MR-O,105,Raw,1993,,CA,104.3,235,245,255,255,185,187.5,190,190,252.5,267.5,272.5,272.5,717.5,,
2,Eric Chang,M,SBD,MR-O,105,Raw,1997,,CA,104.8,225,237.5,247.5,247.5,137.5,142.5,-145,142.5,230,242.5,260,260,650,,
3,Dustin Jackson,M,SBD,MR-O,105,Raw,1992,,CA,104.9,215,227.5,235,235,150,160,165,165,225,240,250,250,650,,
4,Gabriel Farias,M,SBD,MR-O,105,Raw,1995,,CA,101.6,185,200,207.5,207.5,142.5,-147.5,-147.5,142.5,230,247.5,-255,247.5,597.5,,
5,Birdie Baker,M,SBD,MR-O,105,Raw,1990,,CA,97.55,182.5,187.5,192.5,192.5,-135,140,145,145,215,227.5,240,240,577.5,,
6,Clint Petty,M,SBD,MR-O,105,Raw,1983,,CA,104.05,170,185,192.5,192.5,130,137.5,-140,137.5,185,195,212.5,212.5,542.5,,
7,Jose Ortiz-Blanchet,M,SBD,MR-O,105,Raw,1997,,CA,103.2,170,177.5,185,185,110,120,-132.5,120,195,217.5,227.5,227.5,532.5,,
1,Hugo Galvan,M,SBD,MR-O,120,Raw,1991,,CA,112.25,215,230,235,235,130,137.5,-145,137.5,225,240,-260,240,612.5,,
2,Miguel Aguirre,M,SBD,MR-O,120,Raw,1997,,CA,120,205,210,220,220,132.5,137.5,-140,137.5,210,-217.5,-217.5,210,567.5,,
1,Dominic Salazar,M,SBD,MR-T1,66,Raw,2006,,CA,66,115,127.5,137.5,137.5,70,77.5,-90,77.5,122.5,130,142.5,142.5,357.5,,
1,Isaiah Salazar,M,SBD,MR-T2,66,Raw,2005,,CA,66,135,150,162.5,162.5,97.5,102.5,105,105,185,197.5,200,200,467.5,,
1,Harvey Tagalicud,M,SBD,MR-T3,74,Raw,2001,,CA,74,145,170,185,185,105,-125,130,130,177.5,200,-220,200,515,,
1,Ryan Subia,M,SBD,MR-T3,120,Raw,2002,,CA,117.55,212.5,222.5,,222.5,142.5,150,157.5,157.5,267.5,272.5,-282.5,272.5,652.5,,
