Division,WeightClassKg,Place,Name,Team,BodyweightKg,Best3SquatKg,Best3BenchKg,Best3DeadliftKg,TotalKg,Equipment,Event,Sex
Boys,51.71,1,Bryan Gutierrez,Bishop,50.03,122.47,77.11,115.67,315.25,Single-ply,SBD,M
Boys,51.71,2,Isaiah Alaniz,Corpus Christi Tuloso-Midway,51.71,104.33,72.57,115.67,292.57,Single-ply,SBD,M
Boys,51.71,DQ,Jose Huerta,Bishop,46.72,92.99,63.5,,,Single-ply,SBD,M
Boys,55.79,1,Mark Moreno,Odem,54.98,104.33,52.16,136.08,292.57,Single-ply,SBD,M
Boys,59.87,1,Seth Bazan,Bishop,59.24,131.54,77.11,145.15,353.8,Single-ply,SBD,M
Boys,59.87,2,Jordan Gonzales,Gregory-Portland,58.97,122.47,58.97,133.81,315.25,Single-ply,SBD,M
Boys,59.87,3,Conrad Horst,Gregory-Portland,57.97,104.33,56.7,113.4,274.42,Single-ply,SBD,M
Boys,59.87,DQ,Gabriel García #11,Bishop,59.6,129.27,77.11,,,Single-ply,SBD,M
Boys,67.13,1,Kade Baker,Gregory-Portland,65.32,149.69,111.13,149.69,410.5,Single-ply,SBD,M
Boys,67.13,2,Abel Cervantez,Sinton,64.05,147.42,90.72,163.29,401.43,Single-ply,SBD,M
Boys,67.13,3,Isaiah Rodriguez,Bishop,66.13,147.42,92.99,142.88,383.29,Single-ply,SBD,M
Boys,67.13,4,Jose Leyva,Bishop,66.13,131.54,81.65,142.88,356.07,Single-ply,SBD,M
Boys,67.13,5,Jacob Sandoval,Bishop,67.13,117.93,83.91,142.88,344.73,Single-ply,SBD,M
Boys,67.13,6,Jay Gutierrez #2,Corpus Christi Tuloso-Midway,63.59,113.4,68.04,151.95,333.39,Single-ply,SBD,M
Boys,67.13,7,Trae Trevino,Sinton,64.32,120.2,72.57,138.35,331.12,Single-ply,SBD,M
Boys,74.84,1,Chiso Nwamkpa,Corpus Christi Tuloso-Midway,73.57,174.63,115.67,197.31,487.61,Single-ply,SBD,M
Boys,74.84,2,Marshall Tetens,Gregory-Portland,68.04,167.83,92.99,167.83,428.64,Single-ply,SBD,M
Boys,74.84,3,Gavin Gonzalez,Corpus Christi Tuloso-Midway,74.57,154.22,68.04,131.54,353.8,Single-ply,SBD,M
Boys,74.84,4,Austin Candela,Corpus Christi Tuloso-Midway,68.95,129.27,74.84,136.08,340.19,Single-ply,SBD,M
Boys,74.84,5,Gus Byrom,Sinton,73.75,124.74,77.11,127.01,328.85,Single-ply,SBD,M
Boys,82.1,1,Gustavo Gallardo,Sinton,81.47,249.48,140.61,231.33,621.42,Single-ply,SBD,M
Boys,82.1,2,Lupe Calamaco,Sinton,79.83,226.8,120.2,240.4,587.4,Single-ply,SBD,M
Boys,82.1,3,Connor Bowers,Bishop,81.65,217.72,149.69,215.46,582.87,Single-ply,SBD,M
Boys,82.1,4,Zeke Guerrero,Bishop,76.79,176.9,102.06,151.95,430.91,Single-ply,SBD,M
Boys,82.1,5,Juan Santana,Bishop,78.2,151.95,92.99,158.76,403.7,Single-ply,SBD,M
Boys,82.1,6,Nick Lazo,Corpus Christi Tuloso-Midway,80.47,158.76,92.99,147.42,399.16,Single-ply,SBD,M
Boys,89.81,1,Damien Campos,Bishop,87.45,219.99,122.47,210.92,553.38,Single-ply,SBD,M
Boys,89.81,2,Orlando Gonzalez,Odem,87.72,222.26,117.93,213.19,553.38,Single-ply,SBD,M
Boys,89.81,3,Noah Rowe,Gregory-Portland,87.54,195.04,106.59,208.65,510.29,Single-ply,SBD,M
Boys,89.81,4,Christian Alvarado,Gregory-Portland,87.36,181.44,124.74,199.58,505.76,Single-ply,SBD,M
Boys,89.81,5,Landon Garza,Odem,82.55,170.1,102.06,142.88,415.04,Single-ply,SBD,M
Boys,89.81,6,Joey Gamez,Odem,85.91,156.49,102.06,156.49,415.04,Single-ply,SBD,M
Boys,89.81,7,Matthew Hernandez,Odem,85.73,142.88,83.91,156.49,383.29,Single-ply,SBD,M
Boys,89.81,8,Kevin Salinas,Corpus Christi Tuloso-Midway,86.73,83.91,70.31,83.91,238.14,Single-ply,SBD,M
Boys,89.81,DQ,Gage Gomez,Gregory-Portland,88.72,,,,,Single-ply,SBD,M
Boys,99.79,1,Dante Vasquez,Corpus Christi Tuloso-Midway,95.8,247.21,149.69,192.78,589.67,Single-ply,SBD,M
Boys,99.79,2,Tyler Gassaway,Gregory-Portland,97.34,213.19,158.76,210.92,582.87,Single-ply,SBD,M
Boys,99.79,3,Roberto Torres,Sinton,97.7,176.9,108.86,183.7,469.47,Single-ply,SBD,M
Boys,99.79,4,Isaac Martinez,Corpus Christi Tuloso-Midway,97.25,183.7,115.67,165.56,464.93,Single-ply,SBD,M
Boys,109.77,1,Francisco Gonzalez,Sinton,108.77,226.8,163.29,217.72,607.81,Single-ply,SBD,M
Boys,124.74,1,Leo Soliz,Corpus Christi Tuloso-Midway,117.66,263.08,133.81,229.06,625.96,Single-ply,SBD,M
Boys,124.74,2,Jakob Encinia,Sinton,115.85,240.4,174.63,197.31,612.35,Single-ply,SBD,M
Boys,124.74,3,Julian Gomez,Odem,116.03,226.8,145.15,204.12,576.06,Single-ply,SBD,M
Boys,124.74,DQ,Max Anderson,Gregory-Portland,115.21,,,,,Single-ply,SBD,M
Boys,124.74,DQ,Joseph Maldonado,Sinton,123.2,,,,,Single-ply,SBD,M
Boys,124.74,DQ,Juan Carranza,Sinton,111.4,,,,,Single-ply,SBD,M
Boys,124.74,DQ,Gabriel Caldera,Bishop,110.22,,,,,Single-ply,SBD,M
Boys,124.74+,1,Isaiah Allen,Corpus Christi Tuloso-Midway,133.54,294.84,176.9,260.82,732.55,Single-ply,SBD,M
Boys,124.74+,2,Marcos Romero,Odem,139.89,272.16,174.63,231.33,678.12,Single-ply,SBD,M
Boys,,NS,Nate Martinez #4,Sinton,,,,,,Single-ply,SBD,M
Boys,,NS,Cody Underwood,Odem,,,,,,Single-ply,SBD,M
Boys,,NS,Michael Poling,Gregory-Portland,,,,,,Single-ply,SBD,M
Boys,,NS,Jordan Longoria,Bishop,,,,,,Single-ply,SBD,M
