Name,Equipment,Country,Sex,BirthYear,Division,WeightClassKg,BodyweightKg,Squat1Kg,Squat2Kg,Squat3Kg,Best3SquatKg,Bench1Kg,Bench2Kg,Bench3Kg,Best3BenchKg,Deadlift1Kg,Deadlift2Kg,Deadlift3Kg,Best3DeadliftKg,TotalKg,Place,Event,BirthDate
Signe Elisabeth Belden Pavlovic,Raw,Norway,F,1983,Open,69,68.07,170,-180,-180,170,105,110,-115,110,175,182.5,-187.5,182.5,462.5,10,SBD,
Tasmin Campbell,Raw,UK,F,1984,Open,69,68.99,170,180,182.5,182.5,117.5,120,122.5,122.5,215,222.5,-237.5,222.5,527.5,2,SBD,
Yuliia Malynovska,Raw,Ukraine,F,1984,Open,63,62.21,140,147.5,-155,147.5,77.5,82.5,-87.5,82.5,150,160,-170,160,390,13,SBD,
Cinzia Zeltner,Raw,Switzerland,F,1985,Open,63,61.89,120,127.5,132.5,132.5,62.5,67.5,70,70,165,180,190,190,392.5,12,SBD,
Bianca Sullivan,Raw,Austria,F,1986,Open,84,83.69,172.5,180,185,185,112.5,117.5,-120,117.5,190,200,-217.5,200,502.5,6,SBD,
Dalida Mari,Raw,Italy,F,1987,Open,47,47,135,140,145,145,77.5,80,82.5,82.5,140,150,-157.5,150,377.5,2,SBD,
Shanel Mallia,Raw,Malta,F,1987,Open,52,51.3,107.5,112.5,-115,112.5,60,62.5,-65,62.5,135,140,142.5,142.5,317.5,12,SBD,
Ruth Grigg,Raw,UK,F,1987,Open,52,51.8,-132.5,132.5,-140,132.5,92.5,-97.5,97.5,97.5,145,152.5,-160,152.5,382.5,6,SBD,
Raphaela Jungmann,Raw,Austria,F,1987,Open,69,68.05,172.5,180,185,185,107.5,-112.5,-112.5,107.5,192.5,-200,-202.5,192.5,485,6,SBD,
Julie Muscolino,Raw,Belgium,F,1987,Open,52,51.7,117.5,122.5,-125,122.5,60,-62.5,62.5,62.5,145,150,-155,150,335,9,SBD,
Mira Lahtinen,Raw,Finland,F,1987,Open,76,75.4,172.5,182.5,-185,182.5,117.5,122.5,-127.5,122.5,192.5,205,-215,205,510,4,SBD,
Katja Jørgensen,Raw,Denmark,F,1988,Open,84,82.76,172.5,180,182.5,182.5,102.5,107.5,110,110,207.5,222.5,-232.5,222.5,515,5,SBD,
Teuta Jakupović,Raw,Croatia,F,1988,Open,57,56.44,140,145,150,150,80,85,-87.5,85,152.5,165,172.5,172.5,407.5,13,SBD,
Margit Lehóczkyné Fawal,Raw,Hungary,F,1988,Open,52,51,125,135,140,140,87.5,92.5,-95,92.5,147.5,155,-165,155,387.5,5,SBD,
Sabrina Downes,Raw,UK,F,1989,Open,69,67.25,157.5,165,172.5,172.5,110,-112.5,-112.5,110,190,200,-207.5,200,482.5,7,SBD,
Marte Kjenner,Raw,Norway,F,1989,Open,69,68.61,180,190,195,195,-120,120,-127.5,120,205,220,225,225,540,1,SBD,
Sakar Hamawandi,Raw,Norway,F,1990,Open,47,46.9,-110,110,-115,110,72.5,-75,-75,72.5,132.5,140,-142.5,140,322.5,4,SBD,
Þorbjörg Matthíasdóttir,Raw,Iceland,F,1990,Open,84+,125.19,182.5,-190,190,190,90,97.5,-105,97.5,170,177.5,-182.5,177.5,465,7,SBD,
Aleksandra Aranitovic,Raw,Serbia,F,1990,Open,52,51.7,145,150,152.5,152.5,95,-97.5,-97.5,95,-170,170,-172.5,170,417.5,2,SBD,
Beatrice Narizzano,Raw,Belgium,F,1990,Open,76,75.61,150,-157.5,157.5,157.5,90,95,-100,95,155,160,165,165,417.5,17,SBD,
Ivana Horná,Raw,Slovakia,F,1990,Open,69,68.63,177.5,185,-190,185,95,100,102.5,102.5,215,225,-230,225,512.5,3,SBD,
Liudmyla Bychok,Raw,Ukraine,F,1990,Open,76,75.77,190,-197.5,-197.5,190,110,115,-117.5,115,190,200,-212.5,200,505,5,SBD,
Stefanie Verhulst,Raw,Belgium,F,1990,Open,52,51.8,120,-127.5,-130,120,-67.5,67.5,70,70,135,145,-147.5,145,335,10,SBD,
Sovannphaktra Pal,Raw,France,F,1991,Open,57,56.9,165,175,180,180,85,90,-92.5,90,185,195,200,200,470,1,SBD,
Victoria Cavalier-Hirth,Raw,UK,F,1991,Open,84+,138.98,190,197.5,207.5,207.5,117.5,122.5,125,125,180,187.5,-195,187.5,520,5,SBD,
Matilda Hjälle,Raw,Sweden,F,1991,Open,84+,106.03,205,217.5,222.5,222.5,140,147.5,152.5,152.5,205,215,-225,215,590,3,SBD,
Adejoke Adetayo,Raw,UK,F,1991,Open,57,56.41,165,172.5,177.5,177.5,67.5,72.5,77.5,77.5,185,195,-202.5,195,450,2,SBD,
Verdiana Mineo,Raw,Italy,F,1991,Open,76,72.6,180,187.5,-192.5,187.5,100,105,107.5,107.5,180,-187.5,-187.5,180,475,10,SBD,
Sophie Nijenhuis,Raw,Netherlands,F,1992,Open,57,55.35,140,-150,-150,140,70,72.5,75,75,190,200,202.5,202.5,417.5,7,SBD,
Alison O'Reilly,Raw,Ireland,F,1992,Open,84,83.07,182.5,192.5,-197.5,192.5,120,125,127.5,127.5,195,205,-210,205,525,3,SBD,
Ana Rodrigues,Raw,Lithuania,F,1992,Open,76,75.4,-180,-180,180,180,77.5,82.5,-85,82.5,180,-190,-190,180,442.5,16,SBD,
Amélie Mierger,Raw,France,F,1992,Open,84+,144.86,235,247.5,252.5,252.5,155,163.5,165,165,215,227.5,232.5,232.5,650,2,SBD,
Rosa Erimo Sabadell,Raw,Spain,F,1992,Open,76,75.98,167.5,177.5,-185,177.5,97.5,102.5,-105,102.5,195,210,217.5,217.5,497.5,7,SBD,
Jelena Bijelic,Raw,Austria,F,1992,Open,52,51.2,125,130,135,135,85,90,95,95,165,172.5,175,175,405,3,SBD,
Jelena Ivančić,Raw,Croatia,F,1993,Open,84,79.58,135,140,-142.5,140,70,75,77.5,77.5,145,152.5,160,160,377.5,9,SBD,
Sara Ellegaard Andreasen,Raw,Denmark,F,1993,Open,57,56.73,125,132.5,-135,132.5,95,100,102.5,102.5,167.5,177.5,182.5,182.5,417.5,8,SBD,
Chiara Callens,Raw,Belgium,F,1993,Open,69,68.84,142.5,150,155,155,82.5,87.5,92.5,92.5,177.5,187.5,190,190,437.5,14,SBD,
Andrea Marx,Raw,Switzerland,F,1993,Open,76,75.19,150,160,167.5,167.5,90,95,-100,95,170,185,195,195,457.5,14,SBD,
Anastasia Hein,Raw,Germany,F,1993,Open,57,56.83,155,160,-162.5,160,95,97.5,-100,97.5,167.5,175,-177.5,175,432.5,4,SBD,
Anna Kronborg Haar,Raw,Denmark,F,1993,Open,84,83.01,170,177.5,182.5,182.5,95,100,102.5,102.5,175,185,192.5,192.5,477.5,7,SBD,
Katja Babič,Raw,Slovenia,F,1993,Open,57,56.25,145,150,-155,150,77.5,82.5,85,85,162.5,170,175,175,410,11,SBD,
Agáta Szturcová,Raw,Czechia,F,1993,Open,63,62.51,135,142.5,147.5,147.5,77.5,82.5,-85,82.5,165,170,175,175,405,11,SBD,
Maja Bonde,Raw,Denmark,F,1993,Open,76,75.06,-170,175,182.5,182.5,95,100,102.5,102.5,185,200,-207.5,200,485,8,SBD,
Catherine Kilmartin,Raw,Ireland,F,1993,Open,63,61.78,140,147.5,-150,147.5,77.5,80,82.5,82.5,192.5,205,210,210,440,8,SBD,
Stefanie Gierlinger,Raw,Austria,F,1994,Open,84+,126.51,195,205,210,210,107.5,115,117.5,117.5,200,215,222.5,222.5,550,4,SBD,
Mónika Lovas,Raw,Hungary,F,1994,Open,84+,131.38,165,172.5,177.5,177.5,125,130,-135,130,180,190,197.5,197.5,505,6,SBD,
Mathilde Oestergaard,Raw,Denmark,F,1994,Open,57,56.78,132.5,140,145,145,75,80,-82.5,80,155,165,175,175,400,16,SBD,
Satu Pylväs,Raw,Finland,F,1994,Open,57,56.6,140,-145,-145,140,85,90,92.5,92.5,182.5,-187.5,-187.5,182.5,415,9,SBD,
Lea Schreiner,Raw,Germany,F,1995,Open,76,75.21,182.5,192.5,197.5,197.5,105,110,112.5,112.5,210,222.5,-230,222.5,532.5,1,SBD,
Marketta Harjunen,Raw,Finland,F,1995,Open,69,68.84,167.5,175,180,180,80,85,-90,85,180,192.5,-202.5,192.5,457.5,11,SBD,
Miriam Amri,Raw,Netherlands,F,1995,Open,57,56.98,147.5,155,162.5,162.5,77.5,-82.5,-82.5,77.5,175,187.5,-200,187.5,427.5,5,SBD,
Martina Malzová,Raw,Czechia,F,1995,Open,57,56.85,145,152.5,-157.5,152.5,67.5,72.5,-75,72.5,175,185,-190,185,410,12,SBD,
Arna Ösp Gunnarsdóttir,Raw,Iceland,F,1995,Open,69,68.94,145,152.5,155,155,82.5,87.5,90,90,162.5,172.5,-177.5,172.5,417.5,18,SBD,
Annalisa Motta,Raw,Italy,F,1995,Open,47,46.5,127.5,132.5,137.5,137.5,77.5,82.5,85,85,152.5,160,165,165,387.5,1,SBD,
Makeda Vidal,Raw,UK,F,1995,Open,63,61.98,170,177.5,182.5,182.5,85,90,92.5,92.5,185,192.5,-197.5,192.5,467.5,7,SBD,
Alessandra Zaghi,Raw,Italy,F,1995,Open,57,56.85,125,132.5,140,140,65,70,-75,70,175,190,202.5,202.5,412.5,10,SBD,
Noa Chen,Raw,Israel,F,1995,Open,57,56.31,125,132.5,-135,132.5,70,72.5,75,75,150,-162.5,165,165,372.5,20,SBD,
Jacqueline Ulrich,Raw,Germany,F,1995,Open,57,56.09,155,160,162.5,162.5,87.5,90,92.5,92.5,170,177.5,182.5,182.5,437.5,3,SBD,
Rebekka Roemer Andersen,Raw,Denmark,F,1996,Open,76,75.56,152.5,162.5,-167.5,162.5,97.5,102.5,107.5,107.5,175,187.5,-200,187.5,457.5,15,SBD,
Ilaria Barbieri,Raw,Italy,F,1996,Open,52,51.7,135,142.5,-145,142.5,75,77.5,-80,77.5,167.5,177.5,-187.5,177.5,397.5,4,SBD,
Esmee Dijjers,Raw,Netherlands,F,1996,Open,63,62.69,155,162.5,165,165,80,85,-87.5,85,200,212.5,220,220,470,6,SBD,
Ana Lores Fernández,Raw,Spain,F,1996,Open,47,46.8,127.5,137.5,145,145,62.5,-67.5,-67.5,62.5,130,140,155,155,362.5,3,SBD,
Kaylee-Sue Danies,Raw,Netherlands,F,1996,Open,63,62.58,170,177.5,182.5,182.5,95,100,102.5,102.5,190,200,-207.5,200,485,4,SBD,
Sonita Muluh,Raw,Belgium,F,1996,Open,84+,127.31,235,255,275,275,130,140,-145,140,235,252.5,-261,252.5,667.5,1,SBD,
Alejandra Aguilera Garcia,Raw,Spain,F,1996,Open,52,52,117.5,125,-127.5,125,65,-70,-70,65,170,180,187.5,187.5,377.5,7,SBD,
Ziana Azariah,Raw,UK,F,1997,Open,84,83.93,207.5,217.5,220,220,97.5,102.5,105,105,237.5,250,258,258,583,2,SBD,
Martine Ingemann Joergensen,Raw,Denmark,F,1997,Open,63,62.68,-152.5,152.5,-160,152.5,95,100,-102.5,100,160,170,-180,170,422.5,9,SBD,
Viktória Flávia Tóth,Raw,Hungary,F,1997,Open,57,56.69,127.5,137.5,142.5,142.5,82.5,87.5,90,90,162.5,172.5,-177.5,172.5,405,14,SBD,
Kateřina Procházková,Raw,Czechia,F,1997,Open,57,56.57,135,-145,145,145,70,-72.5,72.5,72.5,165,172.5,180,180,397.5,17,SBD,
Nais Hallou,Raw,Belgium,F,1997,Open,69,67.91,155,-160,160,160,87.5,90,-92.5,90,167.5,177.5,-180,177.5,427.5,16,SBD,
Jorill Nese,Raw,Norway,F,1998,Open,76,73.83,167.5,177.5,182.5,182.5,107.5,112.5,115,115,162.5,175,185,185,482.5,9,SBD,
Giada Palma,Raw,Italy,F,1998,Open,84,82.14,170,177.5,182.5,182.5,115,120,-125,120,205,215,-222.5,215,517.5,4,SBD,
Sara Naldi,Raw,Italy,F,1998,Open,63,62.74,185,195,-200,195,102.5,107.5,110,110,205,215,220,220,525,1,SBD,
Fanni Petresevics,Raw,Hungary,F,1998,Open,76,73.3,155,165,172.5,172.5,87.5,92.5,95,95,180,190,202.5,202.5,470,12,SBD,
Mara Hames,Raw,Germany,F,1998,Open,76,75.59,187.5,197.5,202.5,202.5,105,110,-112.5,110,185,190,-192.5,190,502.5,6,SBD,
Nanna Malmgaard,Raw,Denmark,F,1998,Open,69,68.15,150,157.5,162.5,162.5,90,95,-97.5,95,182.5,192.5,-200,192.5,450,13,SBD,
Zoé Coinne,Raw,Belgium,F,1998,Open,57,55.76,135,-140,140,140,80,85,-87.5,85,135,150,155,155,380,18,SBD,
Enikő Tóth,Raw,Hungary,F,1998,Open,76,75.3,167.5,175,180,180,92.5,97.5,100,100,177.5,190,-200,190,470,13,SBD,
Chiara Bernardi,Raw,Italy,F,1998,Open,63,62.34,190,-200,-200,190,-105,105,-112.5,105,202.5,217.5,-230,217.5,512.5,2,SBD,
Alba Ordóñez Rodríguez,Raw,Spain,F,1998,Open,57,56.83,75,77.5,80,80,-85,90,-92.5,90,75,,,75,245,22,SBD,
Sopiko Kvantchiani,Raw,Georgia,F,1998,Open,57,56.98,140,147.5,-152.5,147.5,97.5,102.5,-107.5,102.5,160,167.5,175,175,425,6,SBD,
Rosalía Veiga Lestegás,Raw,Spain,F,1998,Open,69,67.26,145,152.5,157.5,157.5,92.5,95,100,100,185,195,-202.5,195,452.5,12,SBD,
Drífa Ríkarðsdóttir,Raw,Iceland,F,1999,Open,57,56.43,80,95,115,115,77.5,82.5,-85,82.5,120,135,155,155,352.5,21,SBD,
Anastasia Njergeš Orčik,Raw,Serbia,F,1999,Open,57,55.95,132.5,137.5,140,140,65,70,72.5,72.5,175,182.5,190,190,402.5,15,SBD,
Aletta Rozsnyai-Kovács,Raw,Hungary,F,1999,Open,69,67.51,160,170,-175,170,115,120,122.5,122.5,162.5,172.5,-180,172.5,465,9,SBD,
Dariya Iskiv,Raw,Ukraine,F,1999,Open,69,68.76,175,-182.5,182.5,182.5,105,110,-112.5,110,-185,-190,-190,,,DQ,SBD,
Matea Bumba,Raw,Croatia,F,1999,Open,69,67.68,130,137.5,140,140,85,90,-92.5,90,180,190,-195,190,420,17,SBD,
Claudia Zamora Ferrus,Raw,Spain,F,1999,Open,84,80.43,165,175,177.5,177.5,95,100,-105,100,180,190,-200,190,467.5,8,SBD,
Marija Krtalić,Raw,Croatia,F,1999,Open,69,68.11,132.5,140,142.5,142.5,72.5,-77.5,77.5,77.5,155,165,170,170,390,19,SBD,
Katja Aeschbacher,Raw,Switzerland,F,1999,Open,63,62.62,130,-135,135,135,70,75,-77.5,75,165,172.5,-177.5,172.5,382.5,14,SBD,
Lea Žunić,Raw,Croatia,F,1999,Open,63,60.45,110,115,117.5,117.5,72.5,77.5,80,80,160,172.5,177.5,177.5,375,16,SBD,
Nayma Larrosa Cintas,Raw,Spain,F,2000,Open,52,51.3,117.5,125,130,130,80,-82.5,-82.5,80,150,-162.5,-162.5,150,360,8,SBD,
Clara Isabelle Häberer,Raw,Germany,F,2000,Open,63,62.2,170,-175,177.5,177.5,100,105,107.5,107.5,190,200,207.5,207.5,492.5,3,SBD,
Femke Ploeg,Raw,Netherlands,F,2000,Open,76,75.38,170,-180,-180,170,87.5,92.5,-95,92.5,202.5,210,-215,210,472.5,11,SBD,
Ludivine Delos,Raw,France,F,2000,Open,69,68.24,-180,185,190,190,100,105,-107.5,105,205,-217.5,-217.5,205,500,4,SBD,
Agnes Rudin,Raw,Sweden,F,2000,Open,76,75.16,185,195,200,200,112.5,117.5,120,120,190,205,-212.5,205,525,2,SBD,
Camille Hadrys,Raw,France,F,2000,Open,52,52,142.5,150,-155,150,85,90,92.5,92.5,167.5,177.5,185,185,427.5,1,SBD,
Sara Blahova,Raw,Slovakia,F,2000,Open,69,67,135,142.5,150,150,87.5,-92.5,-92.5,87.5,170,180,190,190,427.5,15,SBD,
Jana Dutordoir,Raw,Belgium,F,2000,Open,63,61.27,145,-152.5,152.5,152.5,70,75,-77.5,75,160,172.5,180,180,407.5,10,SBD,
Ellen Grönlund,Raw,Finland,F,2000,Open,76,75.69,192.5,200,205,205,110,-115,-115,110,210,-222.5,-222.5,210,525,3,SBD,
Inmaculada Soto Ruiz,Raw,Spain,F,2000,Open,63,62.74,152.5,160,165,165,100,-102.5,102.5,102.5,200,210,-215,210,477.5,5,SBD,
Jordan Bright,Raw,Ireland,F,2000,Open,69,68.23,177.5,187.5,-192.5,187.5,95,100,102.5,102.5,170,182.5,187.5,187.5,477.5,8,SBD,
Romy van Vianen,Raw,Netherlands,F,2000,Open,69,68.16,175,185,190,190,102.5,107.5,110,110,182.5,195,-212.5,195,495,5,SBD,
Erholove Izobodo-John,Raw,UK,F,2001,Open,84,82.51,200,212.5,215,215,100,105,-107.5,105,237.5,250,263,263,583,1,SBD,
Nataliya Cheremenko,Raw,Ukraine,F,2001,Open,52,51.2,-122.5,-122.5,122.5,122.5,77.5,80,82.5,82.5,117.5,122.5,-127.5,122.5,327.5,11,SBD,
Iva Jurić,Raw,Croatia,F,2003,Open,63,61.96,117.5,125,132.5,132.5,75,80,82.5,82.5,142.5,152.5,162.5,162.5,377.5,15,SBD,
Maria Magdalena Goričanec,Raw,Croatia,F,2004,Open,76,73.29,125,132.5,137.5,137.5,82.5,90,-92.5,90,135,145,152.5,152.5,380,18,SBD,
Leah Glickman,Raw,Israel,F,2005,Open,57,55.34,125,132.5,-137.5,132.5,-67.5,-67.5,67.5,67.5,170,177.5,-185,177.5,377.5,19,SBD,
Margus Silbaum,Raw,Estonia,M,1976,Open,105,104.99,-300,-300,300,300,172.5,182.5,-185,182.5,300,322.5,-330,322.5,805,10,SBD,
Dariusz Wszoła,Raw,Poland,M,1978,Open,59,58.7,195,205,210,210,137.5,142.5,145,145,190,195,-202.5,195,550,3,SBD,
Tony Cliffe,Raw,UK,M,1984,Open,120,119.4,315,-330,330,330,230,240,-245,240,330,347.5,-355,347.5,917.5,1,SBD,
Rubén Rico Martín,Raw,Spain,M,1984,Open,120+,199.03,350,365,370,370,220,227.5,232.5,232.5,315,-332.5,332.5,332.5,935,2,SBD,
Argo Erit,Raw,Estonia,M,1986,Open,120,112.65,250,-265,,250,190,200,-205,200,-300,300,315,315,765,15,SBD,
Joshua Wright #1,Raw,Germany,M,1986,Open,74,73.4,227.5,240,247.5,247.5,177.5,182.5,187.5,187.5,290,307.5,310,310,745,1,SBD,
Mirko Artosi,Raw,Italy,M,1988,Open,93,92.84,270,285,295,295,160,165,170,170,290,312.5,-327.5,312.5,777.5,8,SBD,
Jurins Kengamu,Raw,UK,M,1988,Open,83,82.78,287.5,300,308.5,308.5,167.5,175,180,180,307.5,325,335,335,823.5,1,SBD,
Mateusz Grzesik,Raw,Poland,M,1989,Open,120,117.33,300,310,320,320,207.5,-212.5,-212.5,207.5,230,-335,335,335,862.5,6,SBD,
Aron Friðrik Georgsson,Raw,Iceland,M,1989,Open,120,119.81,-280,-300,-300,,180,-192.5,-192.5,180,270,280,-290,280,,DQ,SBD,
Mads Pedersen,Raw,Denmark,M,1989,Open,83,82.34,240,255,262.5,262.5,177.5,187.5,192.5,192.5,270,287.5,-297.5,287.5,742.5,7,SBD,
Steve Ringoot,Raw,Belgium,M,1989,Open,120+,142.49,310,322.5,330,330,210,220,225,225,310,325,-332.5,325,880,3,SBD,
Álvaro Fernández Arcas,Raw,Spain,M,1989,Open,66,65.4,222.5,-232.5,-232.5,222.5,142.5,-150,150,150,232.5,245,255,255,627.5,3,SBD,
Joël Vanhevel,Raw,Belgium,M,1989,Open,105,103.96,292.5,305,-310,305,195,202.5,-207.5,202.5,300,310,-315,310,817.5,8,SBD,
Remco Sanders,Raw,Netherlands,M,1991,Open,74,73.9,215,-222.5,222.5,222.5,150,155,-157.5,155,260,280,292.5,292.5,670,6,SBD,
Inderraj Singh Dhillon,Raw,UK,M,1991,Open,120,119.39,320,335,-340,335,172.5,177.5,180,180,350,375,380,380,895,3,SBD,
Tamás Temesvári,Raw,Hungary,M,1991,Open,93,92.83,270,280,285,285,182.5,-187.5,187.5,187.5,275,297.5,305,305,777.5,7,SBD,
Christian Ayandokun,Raw,UK,M,1991,Open,93,92.78,275,292.5,305,305,192.5,200,205,205,320,-347.5,-347.5,320,830,2,SBD,
Jure Rus,Raw,Slovenia,M,1991,Open,83,82.68,260,275,285,285,157.5,165,170,170,280,297.5,-307.5,297.5,752.5,6,SBD,
Friðbjörn Bragi Hlynsson,Raw,Iceland,M,1991,Open,83,82.87,240,250,260,260,155,-160,-160,155,270,285,-295,285,700,13,SBD,
Matteo Mistrazzoso,Raw,Italy,M,1991,Open,59,59,175,180,-182.5,180,115,120,122.5,122.5,215,225,232.5,232.5,535,4,SBD,
Toni Johannessen Amengual,Raw,Norway,M,1992,Open,105,103.93,287.5,-302.5,302.5,302.5,190,200,205,205,315,335,347.5,347.5,855,5,SBD,
Oskars Paeglekalns,Raw,Latvia,M,1992,Open,93,92.27,225,232.5,240,240,160,167.5,172.5,172.5,265,280,-300,280,692.5,20,SBD,
Owen Hubbard,Raw,UK,M,1992,Open,83,82.58,255,-270,272.5,272.5,190,200,-210,200,275,292.5,302.5,302.5,775,4,SBD,
Thomas Jost,Raw,Austria,M,1992,Open,93,92.42,260,275,280,280,180,190,195,195,285,302.5,312.5,312.5,787.5,4,SBD,
Tadej Kovačič,Raw,Slovenia,M,1992,Open,120,119.56,280,297.5,307.5,307.5,150,157.5,-160,157.5,270,292.5,-305,292.5,757.5,16,SBD,
Andrew Rubinstein,Raw,Belgium,M,1992,Open,93,92.14,232.5,247.5,-255,247.5,167.5,177.5,-182.5,177.5,280,300,317.5,317.5,742.5,13,SBD,
Elchanan Bunim Brody,Raw,Israel,M,1992,Open,93,89.82,230,-245,245,245,175,180,-185,180,300,-315,-315,300,725,17,SBD,
Joseph Diva,Raw,UK,M,1992,Open,66,65.9,192.5,202.5,210,210,142.5,-150,150,150,235,247.5,257.5,257.5,617.5,5,SBD,
Viktor Samúelsson,Raw,Iceland,M,1993,Open,105,102.16,275,285,-292.5,285,180,192.5,-200,192.5,300,312.5,-322.5,312.5,790,11,SBD,
Miroslav Nečas,Raw,Czechia,M,1993,Open,93,90.46,260,270,280,280,155,165,172.5,172.5,270,285,-300,285,737.5,15,SBD,
Trygve Sletten,Raw,Norway,M,1993,Open,93,92.17,280,290,-295,290,180,190,-195,190,330,350,-355,350,830,1,SBD,
Andrea Salaris,Raw,Italy,M,1993,Open,66,65.6,-232.5,-232.5,232.5,232.5,125,-132.5,-132.5,125,230,-242.5,-242.5,230,587.5,6,SBD,
Tomaž Prijanovič,Raw,Slovenia,M,1993,Open,74,73.4,215,225,230,230,150,155,-160,155,230,242.5,252.5,252.5,637.5,8,SBD,
Tin Valinčić,Raw,Croatia,M,1993,Open,120,118.85,260,272.5,280,280,162.5,170,175,175,300,-320,-325,300,755,17,SBD,
Matthew Henry #1,Raw,Ireland,M,1994,Open,93,92.52,275,290,-295,290,160,165,-167.5,165,285,297.5,302.5,302.5,757.5,11,SBD,
Jens Peter Smalbro,Raw,Denmark,M,1994,Open,120,119.32,285,305,315,315,170,180,-187.5,180,310,330,-337.5,330,825,11,SBD,
Dmytro Biliak,Raw,Ukraine,M,1994,Open,74,74,250,257.5,262.5,262.5,142.5,-150,150,150,280,292.5,295,295,707.5,5,SBD,
Muhammed Deeb,Raw,Israel,M,1994,Open,105,104.74,250,265,275,275,152.5,160,165,165,307.5,-317.5,-317.5,307.5,747.5,18,SBD,
Bálint P. Nagy,Raw,Hungary,M,1994,Open,93,92.86,250,260,-265,260,182.5,192.5,197.5,197.5,267.5,280,-287.5,280,737.5,16,SBD,
Zachariah Ampofo,Raw,Germany,M,1994,Open,83,82.88,245,255,-260,255,160,167.5,-170,167.5,305,-322.5,-322.5,305,727.5,9,SBD,
Rob Esselens,Raw,Belgium,M,1994,Open,93,92.92,-265,265,-275,265,182.5,190,-195,190,285,-300,-300,285,740,14,SBD,
Alexander Eriksson,Raw,Sweden,M,1994,Open,74,72.9,225,237.5,245,245,162.5,170,175,175,282.5,292.5,297.5,297.5,717.5,3,SBD,
Eddie Berglund,Raw,Sweden,M,1995,Open,74,72,247.5,260,270,270,192.5,-197.5,200,200,250,265,272.5,272.5,742.5,2,SBD,
Bob van den Boogaard,Raw,Netherlands,M,1995,Open,105,104.99,282.5,302.5,310,310,150,155,160,160,290,310,-315,310,780,16,SBD,
Asaf Boshi,Raw,Israel,M,1995,Open,83,80.11,220,230,237.5,237.5,130,135,-137.5,135,250,260,267.5,267.5,640,14,SBD,
Alessandro Messina,Raw,Italy,M,1995,Open,83,82.76,242.5,252.5,257.5,257.5,-155,155,-160,155,307.5,-320,-325,307.5,720,10,SBD,
Rubén Fuentes Medina,Raw,Spain,M,1995,Open,105,103.1,315,330,340,340,192.5,200,205,205,295,-307.5,-315,295,840,6,SBD,
Daniel Emil Ussing,Raw,Denmark,M,1995,Open,93,92.84,255,265,270,270,162.5,172.5,177.5,177.5,285,302.5,-315,302.5,750,12,SBD,
Víctor Vázquez Hernández-Carrillo,Raw,Spain,M,1995,Open,120,119.81,330,340,-345,340,210,217.5,220,220,327.5,347.5,-352.5,347.5,907.5,2,SBD,
Harrison Asena,Raw,Iceland,M,1995,Open,93,91.66,-250,-250,250,250,165,172.5,180,180,270,282.5,-292.5,282.5,712.5,18,SBD,
Thorsteinn Ottarsson,Raw,Iceland,M,1995,Open,120+,132.21,315,-325,-325,315,-190,200,-205,200,280,300,-310,300,815,5,SBD,
Federico Murru,Raw,Italy,M,1995,Open,66,65.9,212.5,222.5,-227.5,222.5,152.5,162.5,167.5,167.5,222.5,235,245,245,635,1,SBD,
Mirko Bozić,Raw,Serbia,M,1995,Open,105,103.79,250,262.5,270,270,185,195,-200,195,-310,-320,-320,,,DQ,SBD,
Florian Gillissen,Raw,Belgium,M,1995,Open,105,104.34,-275,-275,275,275,157.5,165,167.5,167.5,280,300,-307.5,300,742.5,19,SBD,
Hynek Fránek,Raw,Czechia,M,1995,Open,105,102.89,250,267.5,280,280,162.5,-170,172.5,172.5,255,270,285,285,737.5,20,SBD,
Cian Madden,Raw,Ireland,M,1995,Open,93,92.86,285,300,-310,300,165,172.5,180,180,277.5,295,-307.5,295,775,9,SBD,
Joel Christopher Catena,Raw,Austria,M,1996,Open,66,65.4,212.5,225,-230,225,145,150,155,155,232.5,245,-255,245,625,4,SBD,
Emil Norling,Raw,Sweden,M,1996,Open,105,104.76,310,320,-327.5,320,200,-207.5,207.5,207.5,345,360,-377.5,360,887.5,1,SBD,
Uros Pihler,Raw,Slovenia,M,1996,Open,105,104.39,262.5,277.5,287.5,287.5,152.5,160,-165,160,310,327.5,337.5,337.5,785,13,SBD,
Youssuf El Adlani,Raw,Italy,M,1996,Open,105,104.8,285,-310,310,310,180,190,200,200,275,-320,-335,275,785,15,SBD,
Olivier Vervalle,Raw,Belgium,M,1996,Open,120,119.28,285,305,310,310,207.5,215,220,220,320,-340,-340,320,850,7,SBD,
Patrik Korcok,Raw,Slovakia,M,1996,Open,120+,173.24,-300,-300,300,300,-215,-215,-215,,250,-312.5,-330,250,,DQ,SBD,
Gordan Klasić,Raw,Croatia,M,1996,Open,105,102.46,257.5,272.5,282.5,282.5,182.5,192.5,-200,192.5,295,312.5,-325,312.5,787.5,12,SBD,
Erik Mata,Raw,Hungary,M,1996,Open,105,104.66,292.5,302.5,,302.5,182.5,192.5,-197.5,192.5,290,-310,-320,290,785,14,SBD,
Julien Gutierrez,Raw,France,M,1996,Open,59,58.8,190,200,-202.5,200,112.5,117.5,120,120,230,237.5,-245,237.5,557.5,2,SBD,
Rubén Rodríguez Castro,Raw,Spain,M,1996,Open,93,92.72,275,290,-302.5,290,167.5,177.5,182.5,182.5,285,305,-320,305,777.5,6,SBD,
Ben Pape,Raw,UK,M,1996,Open,105,104.69,307.5,322.5,327.5,327.5,185,192.5,195,195,320,340,350,350,872.5,2,SBD,
Paul Rembauville,Raw,France,M,1997,Open,83,82.06,275,290,295,295,157.5,165,-170,165,312.5,330,337.5,337.5,797.5,2,SBD,
Andrej Švenda,Raw,Croatia,M,1997,Open,120,118.37,275,290,295,295,165,172.5,180,180,285,300,-310,300,775,14,SBD,
Francesco Bosari,Raw,Italy,M,1997,Open,74,72.7,225,235,-245,235,170,177.5,182.5,182.5,215,225,-235,225,642.5,7,SBD,
Daniele Pola,Raw,Switzerland,M,1997,Open,120,117.61,285,302.5,317.5,317.5,190,202.5,212.5,212.5,260,282.5,300,300,830,10,SBD,
Dami Fashoranti,Raw,Ireland,M,1998,Open,105,104.34,270,285,297.5,297.5,177.5,190,-197.5,190,330,355,375,375,862.5,3,SBD,
Alexander Örn Kárason,Raw,Iceland,M,1998,Open,93,92.84,255,272.5,280,280,-182.5,187.5,-197.5,187.5,280,300,312.5,312.5,780,5,SBD,
Zaza Kharbedia,Raw,Israel,M,1998,Open,74,73,-210,210,220,220,145,-150,-150,145,240,255,-265,255,620,9,SBD,
Valentin Fruchard,Raw,France,M,1998,Open,66,65.9,220,230,232.5,232.5,150,155,160,160,225,240,-245,240,632.5,2,SBD,
Ciarán Murray,Raw,Ireland,M,1998,Open,66,64.6,202.5,212.5,220,220,110,117.5,125,125,227.5,240,-247.5,240,585,7,SBD,
Jochen Strubbe,Raw,Belgium,M,1998,Open,120,117.81,287.5,300,310,310,185,-195,195,195,305,325,335,335,840,8,SBD,
Patrick Kürzi,Raw,Switzerland,M,1999,Open,83,82.46,245,257.5,-262.5,257.5,172.5,180,185,185,272.5,287.5,-295,287.5,730,8,SBD,
Szilárd Bereczki-Király,Raw,Hungary,M,1999,Open,120,118,-310,310,-325,310,210,-220,220,220,290,-302.5,302.5,302.5,832.5,9,SBD,
Leonardo Blažeković,Raw,Croatia,M,1999,Open,93,92.3,255,267.5,-275,267.5,100,,,100,280,295,302.5,302.5,670,21,SBD,
Martin Simonsen,Raw,Denmark,M,1999,Open,120+,168.47,305,320,327.5,327.5,222.5,232.5,242.5,242.5,270,285,300,300,870,4,SBD,
Andrea Cicero,Raw,Italy,M,1999,Open,93,93,270,-282.5,-282.5,270,180,187.5,-195,187.5,300,317.5,-327.5,317.5,775,10,SBD,
Guillaume Parisot,Raw,France,M,1999,Open,83,82.63,-280,-280,280,280,167.5,175,-177.5,175,320,-335,-337.5,320,775,5,SBD,
Novak Lukić,Raw,Serbia,M,1999,Open,105,103.27,275,290,300,300,175,180,-182.5,180,277.5,-290,-295,277.5,757.5,17,SBD,
Kristóf Bence Budai,Raw,Hungary,M,1999,Open,120,119.34,305,325,335,335,190,202.5,207.5,207.5,315,332.5,350,350,892.5,4,SBD,
Anders Broeten Lillemoe,Raw,Norway,M,1999,Open,120,119.92,270,282.5,290,290,167.5,172.5,177.5,177.5,315,335,357.5,357.5,825,12,SBD,
Jakub Šigut,Raw,Czechia,M,1999,Open,120,119.61,282.5,300,310,310,152.5,160,165,165,310,332.5,-355,332.5,807.5,13,SBD,
José López Llorente,Raw,Spain,M,1999,Open,83,82.66,245,255,260,260,165,167.5,-170,167.5,260,272.5,-280,272.5,700,12,SBD,
Timo Jakobi,Raw,Germany,M,1999,Open,105,103.26,302.5,320,332.5,332.5,172.5,180,185,185,325,342.5,-355,342.5,860,4,SBD,
Enahoro Asein,Raw,Hungary,M,1999,Open,83,82.78,257.5,270,-277.5,270,142.5,150,155,155,345,367.5,-399,367.5,792.5,3,SBD,
Walter Smajlović,Raw,Croatia,M,2000,Open,83,82.2,230,242.5,250,250,167.5,175,-180,175,260,272.5,282.5,282.5,707.5,11,SBD,
Alberto Herraiz Francés,Raw,Spain,M,2000,Open,74,73.8,250,260,262.5,262.5,162.5,167.5,170,170,265,277.5,282.5,282.5,715,4,SBD,
Nathan Gevao,Raw,UK,M,2000,Open,93,92.91,282.5,295,-305,295,175,185,-190,185,-312.5,312.5,322.5,322.5,802.5,3,SBD,
Jesper Vogelius,Raw,Denmark,M,2000,Open,105,105,277.5,290,297.5,297.5,-185,190,197.5,197.5,292.5,312.5,320,320,815,9,SBD,
Karlo Mikešić,Raw,Croatia,M,2000,Open,105,104.57,292.5,305,310,310,180,-185,185,185,305,325,340,340,835,7,SBD,
Lukša Zlošilo,Raw,Croatia,M,2000,Open,74,73.8,195,202.5,-205,202.5,147.5,155,162.5,162.5,217.5,225,237.5,237.5,602.5,11,SBD,
Temur Samkharadze,Raw,Georgia,M,2001,Open,120+,160.3,400,415,-430,415,230,240,247.5,247.5,370,390,401,401,1063.5,1,SBD,
Taras Melnichuk,Raw,Ukraine,M,2001,Open,120,117.11,310,320,325,325,225,230,232.5,232.5,320,330,332.5,332.5,890,5,SBD,
Grégory Ostyn,Raw,Belgium,M,2001,Open,74,74,175,-200,-200,175,147.5,152.5,-155,152.5,-275,275,285,285,612.5,10,SBD,
Iván Campano Díaz,Raw,Spain,M,2001,Open,59,58.9,192.5,205,210,210,117.5,-125,125,125,232.5,250,-265,250,585,1,SBD,
Luka Hrgarek,Raw,Croatia,M,2003,Open,93,92.96,227.5,237.5,-245,237.5,160,167.5,-175,167.5,280,295,302.5,302.5,707.5,19,SBD,
