Division,WeightClassKg,Place,Name,Team,BodyweightKg,Best3SquatKg,Best3BenchKg,Best3DeadliftKg,TotalKg,Equipment,Event,Sex,BirthDate
Boys,51.71,1,Cooper Wiemers,Maypearl,49.9,90.72,61.23,111.13,263.08,Unlimited,SBD,M,
Boys,55.79,1,Jack Eubank,Maypearl,55.07,167.83,106.59,170.1,444.52,Unlimited,SBD,M,
Boys,55.79,2,David Gonzales,Alvarado,55.79,138.35,92.99,154.22,385.55,Unlimited,SBD,M,
Boys,55.79,3,Brazos Thomas,Alvarado,53.07,113.4,65.77,138.35,317.51,Unlimited,SBD,M,
Boys,59.87,1,David Lane,Alvarado,58.51,151.95,102.06,183.7,437.72,Unlimited,SBD,M,
Boys,59.87,2,Santiago Galvez,Cleburne,58.88,129.27,83.91,145.15,358.34,Unlimited,SBD,M,
Boys,59.87,3,Adan Ozuna,Crowley,59.42,129.27,79.38,136.08,344.73,Unlimited,SBD,M,
Boys,59.87,4,Christopher Morales,Alvarado,57.61,113.4,68.04,131.54,312.98,Unlimited,SBD,M,
Boys,59.87,5,Javion Farris,Crowley,57.15,,72.57,115.67,188.24,Unlimited,BD,M,
Boys,67.13,1,Gunnar Stovall,Alvarado,65.14,145.15,79.38,165.56,390.09,Unlimited,SBD,M,
Boys,67.13,2,Jordan Todd,Maypearl,65.86,151.95,83.91,149.69,385.55,Unlimited,SBD,M,
Boys,67.13,3,Isaiah Powell,Alvarado,64.86,149.69,74.84,154.22,378.75,Unlimited,SBD,M,
Boys,67.13,4,Joshua Mullinix,Midlothian,62.6,124.74,95.25,145.15,365.14,Unlimited,SBD,M,
Boys,67.13,5,Bryson Huse,Midlothian,63.96,136.08,81.65,136.08,353.8,Unlimited,SBD,M,
Boys,67.13,6,Matthew Mullinix,Midlothian,62.6,,83.91,154.22,238.14,Unlimited,BD,M,
Boys,74.84,1,Schyler Dethorne,Alvarado,73.94,206.38,117.93,210.92,535.24,Unlimited,SBD,M,
Boys,74.84,2,Jaxton Powell,Alvarado,73.48,172.37,104.33,190.51,467.2,Unlimited,SBD,M,
Boys,74.84,3,Adrian Cisneros,Alvarado,73.94,158.76,111.13,167.83,437.72,Unlimited,SBD,M,
Boys,74.84,4,Michael P Stephens,Alvarado,73.48,156.49,102.06,142.88,401.43,Unlimited,SBD,M,
Boys,74.84,5,Connor Cline,Cleburne,74.48,142.88,92.99,149.69,385.55,Unlimited,SBD,M,
Boys,74.84,6,Aden Harris,Alvarado,72.57,136.08,92.99,149.69,378.75,Unlimited,SBD,M,
Boys,74.84,7,Cooper Henson,Maypearl,70.49,117.93,72.57,158.76,349.27,Unlimited,SBD,M,
Boys,74.84,8,Tank Gates,Maypearl,70.94,124.74,74.84,145.15,344.73,Unlimited,SBD,M,
Boys,74.84,9,Brayden Grover,Cleburne,68.86,129.27,63.5,142.88,335.66,Unlimited,SBD,M,
Boys,82.1,1,Leland Hopson,Alvarado,81.65,208.65,136.08,174.63,519.36,Unlimited,SBD,M,
Boys,82.1,2,Donovan Blake,Crowley,77.56,172.37,108.86,204.12,485.34,Unlimited,SBD,M,
Boys,82.1,3,Colten Burnett,Alvarado,81.01,185.97,106.59,192.78,485.34,Unlimited,SBD,M,
Boys,82.1,4,Chance Harper,Maypearl,81.01,197.31,108.86,165.56,471.74,Unlimited,SBD,M,
Boys,82.1,5,Cayden Applegate,Cleburne,81.37,158.76,92.99,156.49,408.23,Unlimited,SBD,M,
Boys,82.1,6,Lucas Andersen,Cleburne,82.1,124.74,68.04,151.95,344.73,Unlimited,SBD,M,
Boys,82.1,7,Fisher Grant,Midlothian,77.56,90.72,61.23,136.08,288.03,Unlimited,SBD,M,
Boys,82.1,8,Armani Ramirez,Cleburne,82.01,90.72,,129.27,219.99,Unlimited,SD,M,
Boys,89.81,1,Jaylon McGinnis,Crowley,88.9,240.4,142.88,226.8,610.08,Unlimited,SBD,M,
Boys,89.81,2,Titan Richards,Maypearl,87.18,204.12,131.54,204.12,539.77,Unlimited,SBD,M,
Boys,89.81,3,Patrick Libbey,Cleburne,89.09,183.7,113.4,197.31,494.42,Unlimited,SBD,M,
Boys,89.81,4,Anthony Frias,Alvarado,88.9,172.37,127.01,183.7,483.08,Unlimited,SBD,M,
Boys,89.81,5,Guillermo Martinez,Alvarado,87.54,161.03,97.52,176.9,435.45,Unlimited,SBD,M,
Boys,89.81,6,Randall Woody,Midlothian,89.36,154.22,104.33,163.29,421.84,Unlimited,SBD,M,
Boys,89.81,7,Anthony Garza,Cleburne,88.63,158.76,102.06,147.42,408.23,Unlimited,SBD,M,
Boys,89.81,8,Bucky Davis,Maypearl,88.36,142.88,92.99,167.83,403.7,Unlimited,SBD,M,
Boys,89.81,9,Jonathan Dobson,Midlothian,83.91,99.79,77.11,115.67,292.57,Unlimited,SBD,M,
Boys,89.81,DQ,Eric Juarez,Cleburne,88.18,204.12,149.69,210.92,,Unlimited,SBD,M,
Boys,99.79,1,Ryder Merritt,Maypearl,98.16,251.74,165.56,226.8,644.1,Unlimited,SBD,M,
Boys,99.79,2,Aaron Rocha,Alvarado,96.16,215.46,129.27,199.58,544.31,Unlimited,SBD,M,
Boys,99.79,3,Shellie Greene,Midlothian,95.25,208.65,113.4,208.65,530.7,Unlimited,SBD,M,
Boys,99.79,4,Roland Jennings,Cleburne,92.99,172.37,124.74,181.44,478.54,Unlimited,SBD,M,
Boys,99.79,5,Lucian Sims,Alvarado,98.43,183.7,124.74,167.83,476.27,Unlimited,SBD,M,
Boys,99.79,6,Koby Sanches,Cleburne,97.34,158.76,95.25,136.08,390.09,Unlimited,SBD,M,
Boys,99.79,7,Ricky Walters,Maypearl,94.35,70.31,74.84,124.74,269.89,Unlimited,SBD,M,
Boys,99.79,8,Brazos Alexander,Cleburne,92.62,86.18,56.7,113.4,256.28,Unlimited,SBD,M,
Boys,109.77,1,Ethan Shook,Alvarado,108.23,217.72,149.69,192.78,560.19,Unlimited,SBD,M,
Boys,109.77,2,Sebastian Reyes,Crowley,108.41,192.78,129.27,183.7,505.76,Unlimited,SBD,M,
Boys,109.77,3,Gerardo Parra,Alvarado,107.05,226.8,108.86,158.76,494.42,Unlimited,SBD,M,
Boys,109.77,4,Mayson Evans,Alvarado,105.14,192.78,115.67,183.7,492.15,Unlimited,SBD,M,
Boys,109.77,5,Ethan Myers,Midlothian,107.05,172.37,104.33,204.12,480.81,Unlimited,SBD,M,
Boys,109.77,6,Jordan Iglehart,Maypearl,109.77,165.56,136.08,165.56,467.2,Unlimited,SBD,M,
Boys,109.77,7,Humberto Albarran,Alvarado,100.52,167.83,102.06,183.7,453.59,Unlimited,SBD,M,
Boys,109.77,8,Cameron Lathers,Cleburne,104.6,83.91,52.16,97.52,233.6,Unlimited,SBD,M,
Boys,109.77,DQ,Keythain Allen,Crowley,108.41,,,,,Unlimited,SBD,M,
Boys,124.74,1,Chuy Ramirez,Cleburne,118.57,272.16,195.04,247.21,714.41,Unlimited,SBD,M,
Boys,124.74,2,Alex Guillen,Midlothian,121.56,249.48,181.44,235.87,666.78,Unlimited,SBD,M,
Boys,124.74,3,Amare Jordan,Crowley,112.49,199.58,149.69,226.8,576.06,Unlimited,SBD,M,
Boys,124.74,4,Luis Martinez,Maypearl,118.66,136.08,83.91,165.56,385.55,Unlimited,SBD,M,
Boys,124.74,5,Caleb Gilbreath,Cleburne,115.67,102.06,63.5,124.74,290.3,Unlimited,SBD,M,
Boys,139.71,1,Bradyn Smith,Midlothian,136.98,317.51,256.28,238.14,811.93,Unlimited,SBD,M,
Boys,139.71,2,Giovanni Warner,Crowley,133.36,233.6,154.22,231.33,619.15,Unlimited,SBD,M,
Boys,139.71,3,Kam Whitener,Midlothian,139.25,249.48,136.08,210.92,596.47,Unlimited,SBD,M,
Boys,139.71,4,Julio Ambris,Midlothian,133.81,206.38,124.74,210.92,542.04,Unlimited,SBD,M,
Boys,139.71,5,Isaac Molina,Alvarado,130.45,170.1,113.4,154.22,437.72,Unlimited,SBD,M,
Boys,139.71,6,Jerron Davis,Cleburne,132.45,113.4,,124.74,238.14,Unlimited,SD,M,
Boys,139.71+,1,Nick Jiles,Crowley,140.16,233.6,165.56,238.14,637.3,Unlimited,SBD,M,
